Date,Adj Close
20190102,252655.3729
20190103,253198.3097
20190104,253295.305
20190107,253452.7671
20190108,253844.4605
20190109,254406.1065
20190110,254140.0829
20190111,254488.1431
20190114,254241.2585
20190115,254306.6274
20190116,254724.058
20190117,254833.6309
20190118,254571.7862
20190121,254645.0203
20190122,254709.9684
20190123,254834.3949
20190124,255334.2848
20190125,255898.3104
20190128,255818.8414
20190129,256470.0888
20190130,257401.5532
20190131,258608.3292
20190201,257774.3741
20190204,257394.2078
20190205,257783.5578
20190206,257517.4815
20190207,257854.5334
20190208,258170.419
20190211,257725.1619
20190212,257901.2223
20190213,257611.8999
20190214,258194.5129
20190215,258480.1297
20190218,258476.014
20190219,259255.9346
20190220,259169.3402
20190221,258324.6212
20190222,258991.3083
20190225,258876.4499
20190226,259212.6606
20190227,258509.1213
20190228,258110.132
20190301,257078.9731
20190304,257566.0411
20190305,257671.455
20190306,257880.7561
20190307,258454.0342
20190308,258966.4365
20190311,258858.0308
20190312,259609.8223
20190313,259781.6878
20190314,259115.4668
20190315,259990.9134
20190318,260002.8718
20190319,259904.6173
20190320,261391.9293
20190321,261380.8151
20190322,262493.8119
20190325,262780.2779
20190326,262683.0718
20190327,262974.6675
20190328,262996.4505
20190329,263161.5496
20190401,262234.5738
20190402,262740.1009
20190403,262184.664
20190404,262489.7591
20190405,263117.1301
20190408,262810.583
20190409,262824.6568
20190410,263841.476
20190411,263434.2773
20190412,263201.0164
20190415,263132.0033
20190416,262703.7136
20190417,262994.6648
20190418,263674.6614
20190419,263586.9115
20190422,263388.7732
20190423,264695.756
20190424,265512.3558
20190425,265708.3822
20190426,266428.2811
20190429,265673.1538
20190430,265715.235
20190501,265675.9707
20190502,264745.856
20190503,265843.0357
20190506,265618.1061
20190507,265114.3188
20190508,264507.0647
20190509,264337.4646
20190510,264797.9915
20190513,264238.9092
20190514,265008.2799
20190515,265794.3692
20190516,265607.5432
20190517,265072.8116
20190520,264708.0837
20190521,265065.4498
20190522,264855.1959
20190523,264850.9958
20190524,265768.2316
20190527,265776.6317
20190528,266272.2982
20190529,266497.3404
20190530,267270.4098
20190531,267499.4217
20190603,268172.8832
20190604,268097.6063
20190605,268474.7136
20190606,269279.2341
20190607,270580.5947
20190610,269361.4194
20190611,269390.2863
20190612,268611.0312
20190613,269695.726
20190614,269821.4946
20190617,270310.72
20190618,271333.5834
20190619,272065.7401
20190620,273413.8723
20190621,271825.687
20190624,272070.5165
20190625,271300.0592
20190626,269820.4953
20190627,271378.9562
20190628,270970.7561
20190701,270589.3985
20190702,271193.0206
20190703,272300.3245
20190704,271818.1136
20190705,271013.4313
20190708,271208.0148
20190709,271511.3876
20190710,272449.876
20190711,271574.9462
20190712,271649.0605
20190715,272359.395
20190716,271385.4975
20190717,272104.7522
20190718,272716.3387
20190719,271334.0539
20190722,271418.5486
20190723,271131.4761
20190724,271433.6933
20190725,270939.8296
20190726,271543.5443
20190729,272054.9316
20190730,272244.14
20190731,272220.928
20190801,273494.0916
20190802,274387.1543
20190805,275562.1817
20190806,276473.5693
20190807,276894.6861
20190808,278099.0913
20190809,277721.3536
20190812,278699.2497
20190813,279355.3991
20190814,278849.8665
20190815,279605.4869
20190816,279725.8708
20190819,279002.0452
20190820,279688.6537
20190821,279836.76
20190822,278868.2844
20190823,279674.9266
20190826,279878.0282
20190827,281404.0428
20190828,281761.343
20190829,281929.5846
20190830,281230.0116
20190902,281186.1249
20190903,281485.5411
20190904,283197.3059
20190905,281393.0273
20190906,281623.0896
20190909,280592.2639
20190910,279038.5478
20190911,279289.3418
20190912,278775.3383
20190913,276631.6196
20190916,278999.1744
20190917,279666.1001
20190918,279375.5332
20190919,280136.5834
20190920,281569.1516
20190923,282079.86
20190924,282033.2347
20190925,280561.572
20190926,281103.8761
20190927,280480.1288
20190930,280126.8607
20191001,279213.8148
20191002,278641.1812
20191003,280211.2894
20191004,281760.7082
20191007,280596.786
20191008,280230.3213
20191009,280663.5818
20191010,279969.01
20191011,280001.5089
20191014,280386.5977
20191015,279646.0704
20191016,280043.1592
20191017,280689.8035
20191018,281180.2412
20191021,281427.3629
20191022,281644.6128
20191023,282427.9112
20191024,282540.6259
20191025,282009.4211
20191028,280756.7452
20191029,280910.0266
20191030,282148.82
20191031,282685.3442
20191101,283536.6776
20191104,282609.3871
20191105,280219.5242
20191106,280263.5496
20191107,279136.8773
20191108,278546.6189
20191111,277941.8563
20191112,278339.7736
20191113,278623.7865
20191114,279233.2268
20191115,279879.3821
20191118,280194.2694
20191119,280500.6398
20191120,280911.9574
20191121,280102.7483
20191122,280508.2869
20191125,281672.8574
20191126,282423.3562
20191127,282321.6988
20191128,282312.8847
20191129,280917.2947
20191202,279335.6546
20191203,280494.9775
20191204,281028.3093
20191205,280864.1197
20191206,281549.3662
20191209,281170.6223
20191210,280971.3229
20191211,281229.495
20191212,280792.5823
20191213,281777.6201
20191216,281806.0211
20191217,281606.696
20191218,281425.0044
20191219,282077.4484
20191220,282670.98
20191223,282018.2457
20191224,282149.8799
20191225,282256.0803
20191226,282954.6605
20191227,283219.9135
20191230,282439.3903
20191231,282588.3688
,
,
,
,
,
,
,
,
,
,
,
,
,
,
,
,
,
,
,
,
,
,
,
,
,
,
,
,
,
,
,
,
,
,
,
,
,
,
,
,
,
,
,
,
,
,
,
,
,
,
,
,
,
,
,
,
,
,
,
,
,
,
,
,
,
,
,
,
,
,
,
,
,
,
,
,
,
,
,
,
,
,
,
,
,
,
,
,
,
,
,
,
,
,
,
,
,
,
,
,
,
,
,
,
,
,
,
,
,
,
,
,
,
,
,
,
,
,
,
,
,
,
,
,
,
,
,
,
,
,
,
,
,
,
,
,
,
,
,
,
,
,
,
,
,
,
,
,
,
,
,
,
,
,
,
,
,
,
,
,
,
,
,
,
,
,
,
,
,
,
,
,
,
,
,
,
,
,
,
,
,
,
,
,
,
,
,
,
,
,
,
,
,
,
,
,
,
,
,
,
,
,
,
,
,
,
,
,
,
,
,
,
,
,
,
,
,
,
,
,
,
,
,
,
,
,
,
,
,
,
,
,
,
,
,
,
,
,
,
,
,
,
,
,
,
,
,
,
,
,
,
,
,
,
,
,
,
,
,
,
,
,
,
,
,
,
,
,
,
,
,
,
,
,
,
,
,
,
,
,
,
,
,
,
,
,
,
,
,
,
,
,
,
,
,
,
,
,
,
,
,
,
,
,
,
,
,
,
,
,
,
,
,
,
,
,
,
,
,
,
,
,
,
,
,
,
,
,
,
,
,
,
,
,
,
,
,
,
,
,
,
,
,
,
,
,
,
,
,
,
,
,
,
,
,
,
,
,
,
,
,
,
,
,
,
,
,
,
,
,
,
,
,
,
,
,
,
,
,
,
,
,
,
,
,
,
,
,
,
,
,
,
,
,
,
,
,
,
,
,
,
,
,
,
,
,
,
,
,
,
,
,
,
,
,
,
,
,
,
,
,
,
,
,
,
,
,
,
,
,
,
,
,
,
,
,
,
,
,
,
,
,
,
,
,
,
,
,
,
,
,
,
,
,
,
,
,
,
,
,
,
,
,
,
,
,
,
,
,
,
,
,
,
,
,
,
,
,
,
,
,
,
,
,
,
,
,
,
,
,
,
,
,
