ticker,RTG_FITCH,RTG_MOODY,RTG_SP
US50064FAK03 Corp@,AA-,Aa2,AA
USU76198AA52 Corp@,A-,,BBB
XS1982113208 Corp@,A,A1,
XS1982118264 Corp@,A,A1,
XS1945125547 Corp@,BBB+,Baa1,BBB+
XS1020855588 Corp@,A-,Baa2,BBB-
SG7V66955876 Corp@,,A1,A
SG6VH1000005 Corp@,,A1,A
XS2046591413 Corp@,,A1,A
US84612NAA19 Corp@,,Aa2,
XS2053390600 Corp@,AA-,A2,A-
XS1472663670 Corp@,A,Baa2,BBB
XS0938014742 Corp@,,A3,BBB+
AU3CB0241891 Corp@,AA-,Aa3,AA-
XS1506401568 Corp@,A+,Baa1,BBB+
XS1825455030 Corp@,,A3,BBB+
SG73E8000007 Corp@,,,BBB+ *+
SG7NA7000009 Corp@,,,BBB+ *+
SG7NF6000009 Corp@,,,BBB+ *+
XS1422299518 Corp@,,A1,A+
XS1297851955 Corp@,,A2,A-
CA780086RF34 Corp@,AA,A2,A
USU75888AA26 Corp@,,Baa2,BBB+
XS1494426932 Corp@,,A3,BBB+
USY72596BU56 Corp@,,Baa2,BBB+
XS1785829927 Corp@,,Baa2,
US168863AV04 Corp@,A,A1,A+
XS1810775145 Corp@,BBB,Baa2,BBB
US71567RAM88 Corp@,BBB,Baa2,BBB
US455780CK06 Corp@,BBB,Baa2,BBB
XS1225009932 Corp@,A,,
XS1523140942 Corp@,BBB+,Baa1,BBB+
US82460EAL48 Corp@,BBB+,Baa1,BBB+
XS1068221073 Corp@,,NR,A+
XS1582346703 Corp@,AA,,AA
SG6W82985964 Corp@,,,AA+
SG7JE8000008 Corp@,,,AA+
XS1457527015 Corp@,,A3,A-
XS1380286663 Corp@,,Baa2,BBB
XS1375202659 Corp@,,Baa2,BBB
SG7V60955658 Corp@,,,BBB+
SG6T34979540 Corp@,,,BBB
US88323AAE29 Corp@,,Baa1,BBB+
SG7V23953782 Corp@,,WR,NR
CA89117FMA44 Corp@,AA-u,Aa3,A
CA892329BJ12 Corp@,A+u,Aa3,AA-
XS1725337445 Corp@,,Baa2,
XS1508675334 Corp@,A,A1,
US91086QBG29 Corp@,BBB,A3,BBB+
US91086QBB32 Corp@,BBB,A3,BBB+
XS1725342288 Corp@,BBB-,,BBB-
USY7136YAA83 Corp@,BBB-,Baa2,BBB-
US71567RAD89 Corp@,BBB,Baa2,BBB
XS1405781698 Corp@,AA-,Aa3,AA-
XS1959337236 Corp@,AA-,Aa3,AA-
USG7306BAA29 Corp@,BBB,Baa1,BBB
XS1419859142 Corp@,BBB,,BBB-
AU3CB0250363 Corp@,,Aa3,A
XS1824431313 Corp@,A+,Aa3,A
XS1970690829 Corp@,A+,Aa3,A
SG2C54964409 Corp@,BBB,Baa1,BBB
XS2026710553 Corp@,BBB+ *-,Baa1 *-,
XS1402929746 Corp@,AA,,AA
XS1696908471 Corp@,AA,,AA
XS1505551322 Corp@,A-,A3,
XS1291169867 Corp@,,A1,A+
US302154CV96 Corp@,AA-,Aa2,AA
XS1690526204 Corp@,,Aa2,AA
US302154CW79 Corp@,AA-,Aa2,AA
XS1207079499 Corp@,A+,A3,
US064159KJ44 Corp@,,Baa3,BBB-
CA06415EXV24 Corp@,AA-,A2,A-
XS1372846003 Corp@,BBB-,,BBB-
XS1551677260 Corp@,BBB-,,BBB-
SG6W16984513 Corp@,,,A+
XS1932866079 Corp@,BBB-,Baa2,
XS1084958989 Corp@,,Baa1,BBB-
SG6YJ3000003 Corp@,BBB,Baa1,BBB-
USY7140DAA82 Corp@,BBB-,Baa3,BBB-
XS1143279724 Corp@,,,AA
XS1602111566 Corp@,A,Baa1,
XS1713316252 Corp@,A,Baa1,
XS1555404786 Corp@,AA,,AA+
XS1226268735 Corp@,,Aa3,AA+
XS0841678278 Corp@,BBB-,Baa2,
XS0701035676 Corp@,AA,Aa2,AA
US500630CC01 Corp@,AA-,Aa2,AA
US40963MAH51 Corp@,,Baa2,BBB+
USY4841LGS44 Corp@,,Aa1,
AU3CB0248862 Corp@,A+,A3,BBB+
XS1321976950 Corp@,A-,Baa1,
AU3CB0229284 Corp@,A,A1,A+
XS1704599460 Corp@,A,,
XS1108784510 Corp@,A-u,A2,A
SG79E1000001 Corp@,,A2 *-,
SGXF10246050 Corp@,,A2 *-,
DE000CB83CF0 Corp@,BBB,Baa3,BBB-
USY2R016AB16 Corp@,,Baa1,BBB+
XS1484844656 Corp@,BBB,Baa1,
SG70I9000003 Corp@,AA-,WR,
XS1633896813 Corp@,,Baa1,
XS1061711575 Corp@,BBB-,Baa1,BBB
CA037833CY47 Corp@,,Aa1,AA+
XS1310991424 Corp@,,Aa2,
XS1206978543 Corp@,A+,Baa1,BBB+
XS0206511486 Corp@,BBB+u,Baa1,BBB+
AU3FN0043188 Corp@,A,Baa2,BBB
XS1722863054 Corp@,A-,Baa3,
CA05590HAW75 Corp@,,A1,A+
XS1230332055 Corp@,A-,,A-
XS1330259018 Corp@,A+,A1,
XS1786085255 Corp@,,Aa2,
XS0484424808 Corp@,NR,WR,NR
XS1593369561 Corp@,,Aa3,
XS1572322235 Corp@,A,A2,
USG2523RAA52 Corp@,BBB+,,BBB+
USY0606WBS80 Corp@,BBB+,Baa1,BBB+
XS1313048974 Corp@,,A1,A
HK0000490091 Corp@,,A2,
XS1234958376 Corp@,A,A3,A-
US56501RAC07 Corp@,A-,,A
XS1405757631 Corp@,BBB+,,A-
SG7FH4000003 Corp@,,Baa1,
SG76F2000003 Corp@,,Baa1,
XS2075921887 Corp@,AA,Aa2,
US606822BH67 Corp@,A,A1,A-
XS1247821397 Corp@,,A1,
XS0803109270 Corp@,,A2,A-
XS1416409503 Corp@,A+,Baa1,BBB+
USJ54675AB95 Corp@,A-u,A3,A-
US09681MAG33 Corp@,A-,,A-
XS1653762853 Corp@,,,A-
US06428YAA47 Corp@,,Baa2,BBB
XS1907273350 Corp@,A,A1,A
HK0000463023 Corp@,A,A1,A
HK0000498771 Corp@,A,A1,A
XS1774687542 Corp@,A,A1,A
XS1795377701 Corp@,AA,Aa2,A+
CA06368BJ907 Corp@,AA,Aa2,
CA06368B2H05 Corp@,AA-,A2,
XS1485603408 Corp@,A+,A2,
SG79A8000002 Corp@,A+,A2,
SG72C9000002 Corp@,BBB,Baa1,
CA949746SY82 Corp@,A+,A2,A-
USY9485PAB86 Corp@,,A3,A-
US98105HAC43 Corp@,,Baa2,BBB
XS1273972957 Corp@,A+,Baa1,BBB+
US96122XAL29 Corp@,AAA,Aaa,
VGG2214PAU99 Corp@,,,A+
HK0000114840 Corp@,AA,,AA+
HK0000094711 Corp@,AA,,AA+
HK0000065323 Corp@,AA,,AA+
HK0000072832 Corp@,,NR,AA+
HK0000082328 Corp@,AA,,AA+
HK0000201233 Corp@,AA,,AA+
HK0000085537 Corp@,AA,,AA+
HK4169039582 Corp@,,Aa3,AA+
HK0000235769 Corp@,NR,,NR
HK0000462116 Corp@,,,
HK0000149713 Corp@,,,AA+
XS1650033571 Corp@,BBB,Baa1,
XS1245212037 Corp@,A-,Baa2,BBB
XS1614247812 Corp@,,A1,A+
XS2059678008 Corp@,,A1,A+
XS1701435742 Corp@,,A1,A+
AU3CB0223675 Corp@,NR,WR,NR
XS0496405795 Corp@,A+,A2,
XS1103788581 Corp@,A-,,A-
US09681MAA62 Corp@,A-,,A-
XS1700429050 Corp@,A-,,A-
XS1138283236 Corp@,A,A1,
XS1227820187 Corp@,BBB+,,BBB+
XS0858461758 Corp@,,A1,
XS1214407410 Corp@,,A3,
XS1622745203 Corp@,BBB+,Baa2,
XS1262889998 Corp@,A,A2,
XS2099267689 Corp@,,A1,
XS1644428614 Corp@,A-,,BBB
CA14911ZAS08 Corp@,A,,A
CA14911ZAU53 Corp@,A,,A
CA05565QDS45 Corp@,Au,A1,A-
AU3CB0264513 Corp@,A,Baa2,BBB
XS1550975079 Corp@,A,Baa2,BBB
CA112585AG91 Corp@,A-u,Baa1,A-
XS1877869088 Corp@,A-,Baa1,A-
XS1405888576 Corp@,,A2,A-
XS1820763503 Corp@,,A2,
XS1503116599 Corp@,BBB-,Baa2,
XS1673684509 Corp@,,Baa2,
XS1075309754 Corp@,A-,A3,
AU3CB0250512 Corp@,A+,A3,
SG7JC5000005 Corp@,,,BBB+
SG7Z25966556 Corp@,,,A+
XS1551355149 Corp@,A-,Baa1 *-,
AU3CB0229862 Corp@,A,A3,BBB+
XS1934321404 Corp@,,,AA+
SG6ZH4000003 Corp@,,Aaa,
SG71B3000002 Corp@,,Aaa,
SG72A8000007 Corp@,,Aaa,
CA438121AV76 Corp@,,A2,
XS1322367985 Corp@,A,A2,A
XS1823212904 Corp@,BBB,Baa2,BBB-
XS1267602214 Corp@,A,A3,BBB+
XS1876071751 Corp@,A-,,
XS1308339420 Corp@,A,A3,
XS2001168447 Corp@,,A2,
CA13509PCL54 Corp@,,Aaa,AAA
CA13595ZZ661 Corp@,AA-,Aa2,A+
CA13596ZE680 Corp@,AA-,Aa2,A+
XS1940150623 Corp@,A,A3,BBB+
XS1387220822 Corp@,,A1,AA-
XS1435309908 Corp@,,A1,AA-
XS0993259844 Corp@,BBBu,A3,BBB+
XS1511800275 Corp@,AA-,Aa3,AA-
XS1428988536 Corp@,,Aa3,AA-
XS1706939227 Corp@,AA-,Aa3,AA-
XS1851274511 Corp@,A,NR,A
HK0000476330 Corp@,A+,,
HK0000478757 Corp@,A+,,
XS1956836032 Corp@,A+,,
USY00130RW92 Corp@,BBB-,Baa3,BBB-
HK0000071412 Corp@,AAA,Aaa,AAA
XS2001754766 Corp@,,,A+
AU3CB0248151 Corp@,A+,,A
AU3FN0038840 Corp@,A+,,A
XS1418627821 Corp@,,Baa1,
XS1533837313 Corp@,AA-,A1,AA-
XS0913601950 Corp@,BBB+,Baa1,
XS1936139937 Corp@,,A2,
XS0252367775 Corp@,BBB+,Baa1,BBB+
XS0912154381 Corp@,,A3,BBB+
XS1039273666 Corp@,BBB+,Baa1,BBB+
XS1950126109 Corp@,,Baa1,BBB+
XS1237961369 Corp@,A-,Baa2,BBB+
US225433AK71 Corp@,A-,Baa2,BBB+
XS1334170799 Corp@,A-,A3,A-
XS1550144072 Corp@,A-,A3,A-
US23304SAB97 Corp@,AAA,Aaa,
CA23384NBA42 Corp@,A-,A3,A-
XS1878119889 Corp@,A-,A3,A-
XS1573134522 Corp@,A,A3,A-
XS1391407969 Corp@,,A1,
XS0508012092 Corp@,,Baa1,BBB+
XS0852986156 Corp@,,Baa1,BBB+
XS0852986313 Corp@,,Baa1,BBB+
XS1766548991 Corp@,AA-,Aa3,A+
USG24524AH67 Corp@,,Ba2,BB
XS1789509160 Corp@,BBB-,,
XS2026425947 Corp@,A-,,BBB+
XS1744630341 Corp@,BBB,,
XS2030348903 Corp@,,Baa3,
XS1106513762 Corp@,BBB *,Baa3,
XS0463588052 Corp@,BBB+,Baa1,BBB+
XS0372860790 Corp@,BBB+,Baa1,BBB+
AU3CB0223741 Corp@,A,A3,BBB+
XS1328129009 Corp@,A+,A2,
HK0000123213 Corp@,,,AA+
HK0000034147 Corp@,WD,,AA+
XS1219829949 Corp@,,,BBB
XS1545506740 Corp@,,,NR
HK0000332574 Corp@,,WR,AA+
CA438121AS48 Corp@,,A2,
USG22117AB45 Corp@,,Baa1,A-
XS1596794971 Corp@,A,Baa1,
XS1596795275 Corp@,A,Baa1,
XS1596795192 Corp@,A,Baa1,
CA40427HSU81 Corp@,A+,,AA-
XS1317967146 Corp@,A,Baa1,BBB+
USG4673GAB17 Corp@,A-,A2,A
CA44810ZBA71 Corp@,,A3,A-
XS1565064273 Corp@,,A1,AA-
VGG2214PAX39 Corp@,,NR,A+
HK0000241080 Corp@,,NR,A+
HK0000226511 Corp@,,NR,A+
XS1449950663 Corp@,A-u,,A
XS1578089234 Corp@,,A3,
XS1713666318 Corp@,,Baa1,
XS1856800450 Corp@,,Baa1,BBB
XS1856799421 Corp@,,Baa1,BBB
XS0796188299 Corp@,,A2 *-,
XS1679508504 Corp@,,Baa1,A-
XS1401202517 Corp@,,,A-
XS0926834432 Corp@,,A2,A
XS0515468063 Corp@,,A2,A
XS0529025172 Corp@,,,A
XS0848709860 Corp@,,A2,A
XS0747069671 Corp@,,A2,A
XS0988382015 Corp@,,A2,
XS0769334649 Corp@,,A2,
HK0000288107 Corp@,,Aa3,AA+
XS1241110300 Corp@,A,A3,
XS1650145706 Corp@,,Aa2,
XS1390432190 Corp@,,Aa2,
XS1402929589 Corp@,AA,,AA
XS1347434927 Corp@,BBB-,Baa2,BBB-
XS1960399530 Corp@,BBB-,Baa2,
XS1910821682 Corp@,BBB+,Baa1,
XS1033744134 Corp@,NR,WR,NR
XS1074107910 Corp@,AA-,Aa2,AA
XS0682825608 Corp@,AA-,Aa2,
HK0000067741 Corp@,,A3,BBB+
XS2044279334 Corp@,,A3,
AU3CB0237725 Corp@,BBB+,NR,BBB+
AU3CB0243558 Corp@,BBB+,,BBB+
XS1438451848 Corp@,,Baa2,BBB
XS1888197024 Corp@,,A1,
AU3CB0227858 Corp@,NR,WR,NR
XS1202242712 Corp@,A,A2,
USY3R559AF96 Corp@,A,A2,A
XS1958533553 Corp@,,A2,A
US44891CAV54 Corp@,,Baa1,BBB+
US44891CAS26 Corp@,,Baa1,BBB+
XS1881014887 Corp@,,,A-
HK0000303195 Corp@,,,A-
HK0000249703 Corp@,,A1,
HK0000091865 Corp@,,A1,A
HK0000111929 Corp@,,A1,A
HK0000300878 Corp@,,A1,
HK0000298098 Corp@,,A1,
XS1382636493 Corp@,AA-,A2,A
XS0518771794 Corp@,,Aa2,AA
XS1216009784 Corp@,AA-,Aa2,
XS1757816688 Corp@,,Aa2,
HK0000237963 Corp@,,WR,
HK0000545605 Corp@,,A2,
XS1624183197 Corp@,BBB,Baa2,BBB+ *-
AU3CB0227411 Corp@,A+,A3,
XS1824235482 Corp@,AA-,Aa3,AA-
XS0550437288 Corp@,,Baa1,BBB
XS1423777561 Corp@,BBB,Ba1,BBB-
HK0000135993 Corp@,,Aa3,AA+
XS1711555257 Corp@,AA-,Aa2,AA
XS1710541506 Corp@,AA-,,AA
XS1845130217 Corp@,,Aa2,AA
US500630CW64 Corp@,AA-,Aa2,AA
AU3CB0266062 Corp@,,Aa2,AA
XS1860797361 Corp@,,,A+
XS1861486063 Corp@,,,A+
USY4836TBF76 Corp@,WD,Aa2,AA
XS1752440773 Corp@,,Aaa,AAA
CA63306AGE07 Corp@,A+,A3,BBB+
HK0000138211 Corp@,,Baa3,BBB-
HK0000126687 Corp@,,Baa3,BBB-
US65557HAA05 Corp@,A+,Baa1,A-
XS1241052346 Corp@,AA-,Aa3,AA-
XS1628013416 Corp@,AA-,Aa2,A+
CA064151UU54 Corp@,,,A+
XS2089341809 Corp@,AA-,A2,A-
XS1045934293 Corp@,A+,Aa3,AA-
XS1967614469 Corp@,BBB-,Baa2,
XS1992940913 Corp@,A-,,
USG8185TAA72 Corp@,A,A3,A-
XS1879843438 Corp@,A+,A2,A
XS1555809927 Corp@,BBB+,Baa1,BBB+
HK0000399094 Corp@,,A3,
XS2045892085 Corp@,,Baa2,BBB-
USG82296AA50 Corp@,A-,,A-
XS1572743927 Corp@,,A1,A-
XS2012984154 Corp@,,A1,A+
XS2008300597 Corp@,,A1,A+
USY4841K5T67 Corp@,,Aa1,
XS1496392330 Corp@,BBB+,Baa1,BBB+
XS0595675439 Corp@,,Aa2,AA
USY4822WCS71 Corp@,AAA,Aaa,
XS1389943686 Corp@,,A1,A
XS1805377246 Corp@,,A1,A
AU0000KOPHA4 Corp@,,,AA
XS2059681135 Corp@,,Baa3,BBB
XS2033262895 Corp@,BBB,Baa3,BBB-
XS2098539815 Corp@,BBB,Baa3,BBB-
XS1438319656 Corp@,,,AA-
XS1807463408 Corp@,AAA,Aaa,AA+
XS1978319108 Corp@,BBB-,Baa2,
CA713448DQ80 Corp@,Au,A1 *-,A+
XS0468625545 Corp@,,Aa1,AA
HK0000298981 Corp@,A+u,,
XS1756403124 Corp@,BBB+,Baa3,BBB-
XS1819477990 Corp@,BBB,Baa2,
XS0527351653 Corp@,,Aa3,AA-
AU3CB0250355 Corp@,,Aa3,A
US455780CC89 Corp@,BBB,Baa2,BBB
XS1894675674 Corp@,,A1,A+
XS1894671418 Corp@,,A1,A+
XS1528227827 Corp@,A,A2,
US80007RAE53 Corp@,BBB-,Baa2,BBB-
US80007RAB15 Corp@,BBB-,Baa2,BBB-
XS1964779349 Corp@,,A3,
XS1262584532 Corp@,BBB+,Baa2,BBB
XS1892105823 Corp@,BBB+,A3,
HK0000131679 Corp@,,NR,A+
XS1325600994 Corp@,BB+,Ba2u,BB
XS1033696490 Corp@,,,A
XS1074272953 Corp@,,,A
XS2034713516 Corp@,,A1,
USY20721BD05 Corp@,BBB,Baa2,BBB
XS1936310371 Corp@,BBB-,Baa2,
XS1185978696 Corp@,NR,WR,NR
XS1394760182 Corp@,,A1,AA-
XS2047474585 Corp@,,Aa2,AA
USU65478BP09 Corp@,,Baa1,BBB+
HK0000237526 Corp@,,A2,A
HK0000256419 Corp@,,A2,A
XS1299710530 Corp@,A+,NR,A+
AU3CB0228583 Corp@,A+,Aa3,A+
AU3CB0265627 Corp@,A+,Aa3,A+
XS2025842688 Corp@,A,A1,A
XS1743535491 Corp@,BBB,Baa3,
XS1666596397 Corp@,,Aa2,
US539439AS89 Corp@,A+,A3,BBB+
XS1699636574 Corp@,A+,A3,BBB+
XS1596070547 Corp@,AA,Aa2,AA
XS2057887353 Corp@,A,A1,A-
XS1856031056 Corp@,,A1,A-
XS1198224831 Corp@,,WR,NR
US59217HAR84 Corp@,AA-,Aa3,AA-
US59217HAT41 Corp@,AA-,Aa3,AA-
XS1403868125 Corp@,,,A+
AU3FN0046835 Corp@,,A1,A
CA6174468D43 Corp@,A,A3 *+,BBB+
USJ41838AA14 Corp@,A-u,A3,A-
US63254ABB35 Corp@,,Aa3,AA-
US63254AAL26 Corp@,,Aa3,AA-
XS1413580496 Corp@,A+,Baa1,BBB+
XS1193180921 Corp@,NR,WR,NR
XS1533810039 Corp@,AAA,Aa3,AA-
AU3CB0260990 Corp@,AA-,Aa3,AA-
XS0423325181 Corp@,A,Baa2,A-
XS1397783918 Corp@,A+,Aa3,A
XS1694628527 Corp@,AA-,Aa3,
CA63306AGD24 Corp@,A+,A3,BBB+
CAG5533WBW69 Corp@,A+,A3,BBB+
XS1411381467 Corp@,,A3,
HK0000390861 Corp@,A-,A3,
XS1891980358 Corp@,,A3,
XS1033977825 Corp@,A,A2,A+
AU3CB0227940 Corp@,,WR,NR
AU3CB0265593 Corp@,A,A2,A+
XS1965457275 Corp@,A-,A3,A-
AU3CB0261378 Corp@,WD,Baa1,BBB+
CA580135CD12 Corp@,WD,Baa1,BBB+
XS1821080576 Corp@,A+,Aa3,A
XS1830000045 Corp@,A+,Aa3,A
XS0859029893 Corp@,AA-,Aa3,A+
XS1691865619 Corp@,AA,Aa2,AA-
XS1222539022 Corp@,,Aa2,AA-
CA780086PX67 Corp@,,Aa2,AA-
CA780086QL11 Corp@,AA,A2,A
XS2013002824 Corp@,BBB-,Baa3,
US195325BN40 Corp@,BBB,Baa2,BBB-
USP3772NHK11 Corp@,BBB,Baa2,BBB-
HK0000091014 Corp@,,A1,A+
HK0000285277 Corp@,,A1,
HK0000082757 Corp@,,A1,A+
HK0000305893 Corp@,,A1,
HK0000130945 Corp@,,NR,A+
HK0000361730 Corp@,,A1,
HK0000360526 Corp@,,A1,
HK0000135134 Corp@,,NR,A+
HK0000416336 Corp@,,A1,
XS1955077596 Corp@,,A1,A+
XS1790624883 Corp@,BBB-,,
XS1891434604 Corp@,BBB-,,
XS0589885960 Corp@,,A3,A-
XS1082471423 Corp@,,A3,A-
XS0494132540 Corp@,NR,WR,A-
HK0000137866 Corp@,,NR,A-
HK0000158672 Corp@,,NR,A-
HK0000261591 Corp@,,NR,A-
HK0000307923 Corp@,,A3,
HK0000331998 Corp@,,A3,A-
XS1483161631 Corp@,AA-,A1,AA-
XS1854172043 Corp@,BB+,,BB+
XS1659119629 Corp@,,Ba3,BB
XS1856094724 Corp@,,Ba3,BB
XS1435072548 Corp@,A *+,A3 *+,NR
USV04008AA29 Corp@,BB,Ba2,
USV00027AA65 Corp@,BB-,Ba3,
XS1615078141 Corp@,,Ba2,BB
US06738EAQ89 Corp@,A,Baa2,BBB
USY71300AA84 Corp@,BB-,Ba3,
XS1969792800 Corp@,BB,,BB-
XS2099272846 Corp@,BB,,BB-
XS1729851490 Corp@,BB-,,
XS1860402954 Corp@,BB-,,
USG2176WAA48 Corp@,A-,A2,A
XS1496760239 Corp@,,B1,
XS1415611463 Corp@,,A1,
XS1751178499 Corp@,BBB-,,
XS1974522853 Corp@,BBB-,,
XS1512966372 Corp@,,B1,B+
XS1991398352 Corp@,,B1,B+
XS1611005957 Corp@,BB-,B2,B
XS1876052025 Corp@,BB-,B2,B
XS1937690128 Corp@,BB-,B2,
XS1952585112 Corp@,BB-,B2,B
XS1432416029 Corp@,,A3,BBB+
USP22854AG14 Corp@,BB-,Ba3,BB-
XS2016070190 Corp@,,Ba2,BB
XS1801151371 Corp@,BB,B1,BB-
XS1952116983 Corp@,BB,,BB-
XS1984473071 Corp@,BB-,B1,
USU2339CCJ54 Corp@,A-,A3,A-
USJ09748AD66 Corp@,A-,A3u,A-
XS0308427581 Corp@,BBB+ *-,Baa1 *-,NR
XS1545743442 Corp@,BB-,,
XS1811023065 Corp@,BB-,,
XS1956169657 Corp@,BB-,,
XS1933891043 Corp@,BB *+,Ba2,
XS1627599142 Corp@,B,B2,B
XS1627599498 Corp@,B,B2,B
AU3CB0262517 Corp@,,A3,BBB+
AU3CB0249365 Corp@,BBB,Baa2,BBB
XS1219421861 Corp@,,A3,BBB+
XS1645483923 Corp@,,A3,BBB+
XS1713193586 Corp@,BBB+,Baa2,BBB
XS1805368682 Corp@,BBB+,Baa2,BBB
XS1823770828 Corp@,BBB+,Baa2,BBB
XS1958532829 Corp@,BBB+,Baa2,BBB
XS2009851176 Corp@,,,BBB
CA918423AN49 Corp@,,A3,BBB+
XS1933097633 Corp@,,A3,BBB+
USG8850LAC49 Corp@,A+,A1,
XS2053345992 Corp@,A+,A1,
XS1569850313 Corp@,A+u,Aa3,AA-
CA8911454A94 Corp@,,Aa1,
US891160MJ94 Corp@,,A2,A-
CA891160K519 Corp@,,Aa1,AA-
CA891160LV34 Corp@,,Aa1,AA-
AU3CB0264778 Corp@,AA-u,,A
XS1703791365 Corp@,A+u,Aa3,AA-
HK0000506656 Corp@,,A3,
HK0000242559 Corp@,,A2,
HK0000235009 Corp@,,A2,
HK0000335346 Corp@,,A2,
HK0000304854 Corp@,,A2,
XS0521395623 Corp@,,A1,
XS1887493309 Corp@,A,A2,BBB+
XS1190294063 Corp@,NR,WR,NR
AU3CB0242543 Corp@,AA- *-,Aa2,AA-
XS1844104437 Corp@,AA- *-,Aa2,AA-
XS1344520488 Corp@,AA-,A1,AA-
HK0000394327 Corp@,,A2,
XS1750007632 Corp@,AA-,Aa3,AA-
XS1892113413 Corp@,AA-,Aa3,AA-
AU3CB0260206 Corp@,AA-,Aa3,AA-
AU3CB0237683 Corp@,AA-,Aa3,AA-
XS2008741295 Corp@,BBB,,
XS1090889947 Corp@,BB,,BB-
XS1753594198 Corp@,,,BB-
USY00130RP42 Corp@,BBB-,Baa3,BBB-
CA918423AR52 Corp@,,A3,BBB+
CA918423AW48 Corp@,,A3,BBB+
XS1679350014 Corp@,BBB,,BBB-
AU3CB0229565 Corp@,WD,A3,A-
AU3CB0206134 Corp@,,WR,NR
XS1458461883 Corp@,A+,A2,A-
XS1602312891 Corp@,A+,A2,A-
XS1421288538 Corp@,,A2,A-
XS1651205152 Corp@,A+,A2,A-
HK0000195435 Corp@,BBB,,
AU3CB0258614 Corp@,,Aa3,AA-
CA892329BD42 Corp@,A+u,Aa3,AA-
CA892329BG72 Corp@,A+u,Aa3,AA-
GB00BN65R198 Corp@,AAu,Aa2u,
US91086QBC15 Corp@,BBB,A3,BBB+
HK0000149721 Corp@,,,AA+
XS1994698436 Corp@,,Baa2,
XS1994698196 Corp@,,Baa2,
AU3CB0245108 Corp@,,A3,BBB+
AU3CB0255941 Corp@,,A3,BBB+
XS1767800961 Corp@,,,
XS1982036961 Corp@,,B2,B
XS1772752710 Corp@,AA-,Aa3,
XS1498418224 Corp@,,B3,B
XS2100005771 Corp@,B+,,B
XS1565437057 Corp@,NR,,NR
XS1581103428 Corp@,,,BB
XS1728444131 Corp@,,Ba2,BB
XS2019083612 Corp@,,,BB
XS1820761556 Corp@,,Ba3,BB-
USY39698AA65 Corp@,BB-,Ba3,
USY20721AU39 Corp@,BBB,Baa2,BBB
USY20721BE87 Corp@,BBB,Baa2,BBB
USY39694AA51 Corp@,BB-,Ba3,
XS1586341981 Corp@,BB,Ba2,
XS1493722299 Corp@,BB,,BB-
XS1937801212 Corp@,,B2,
XS2002235518 Corp@,B,B2,
XS2030334192 Corp@,B,B2,
US50066CAL37 Corp@,AA-,Aa2,AA
USG5975LAE68 Corp@,,Ba2 *-,BB *-
XS1308713723 Corp@,BBB,,BBB
USY59515AA72 Corp@,B+,B1,B+
US61746BED47 Corp@,A,A3 *+,BBB+
XS1186986904 Corp@,NR,WR,NR
USJ54675AC78 Corp@,A-,A3,
USJ54675AZ63 Corp@,,A3,A-
XS1625981045 Corp@,BB,Ba2,
XS1810682564 Corp@,BB,Ba2,
XS0648477593 Corp@,BBB-,,BBB-
XS1897132319 Corp@,,Aa3,A+
USY4822WCT54 Corp@,,Baa3,BBB-
XS1545506401 Corp@,BB-,,B
XS1556169206 Corp@,BB-,,B
XS1685542141 Corp@,BB-,,
XS1811206066 Corp@,BB-,,
USN5276YAD87 Corp@,,Ba2,BB+
XS2020061326 Corp@,,Ba2,
XS1747539465 Corp@,BB-,,
XS2098650414 Corp@,BBB,Baa3,BBB-
XS1979285571 Corp@,,B1,B+
XS1483944317 Corp@,,Ba3,BB-
XS1747665922 Corp@,BB-,,
XS1976760782 Corp@,BB-,B2,
XS2031469732 Corp@,BB-,,
XS2090949160 Corp@,BB-,,
USY20721BM04 Corp@,BBB,Baa2,BBB
XS1934311355 Corp@,,,BB-
XS1575984734 Corp@,,B2,B
XS1795479291 Corp@,,B2,B
XS1517977093 Corp@,BB,Ba2,BB
US71568QAB32 Corp@,BBB,Baa2,BBB
US71568QAL14 Corp@,BBB,Baa2,BBB
USY7138AAE02 Corp@,BBB,Baa2,BBB
US69370RAG20 Corp@,BBB,Baa2,
XS1489814779 Corp@,,B2,B
XS1645451565 Corp@,,B2,B
USY711AJAA00 Corp@,BB-,Ba3,
XS1707749229 Corp@,BBB-,Baa2,
XS1485745704 Corp@,A+,Aa3,A
USY8137FAF54 Corp@,B,B2,B
USY8137FAP37 Corp@,B,B2,B
USY2029SAH77 Corp@,B,B2,B
USG8539EAB14 Corp@,,Ba3 *-,BB- *-
USG85381AB09 Corp@,,B2 *-,
XS1165340883 Corp@,BB,,BB
USJ8129EAW87 Corp@,,Baa2,BBB+
XS1749435324 Corp@,BB-,B1,B+
XS1831884702 Corp@,BB-,B1,
XS1870219018 Corp@,BB-,B1,
XS1508493498 Corp@,BB-,B1,
XS1692346395 Corp@,,B1,
XS1819960136 Corp@,BB-,,B+
XS2073593274 Corp@,BB-,B1,
XS2050860308 Corp@,B+,B2,
XS1092182606 Corp@,NR,,NR
XS1959497782 Corp@,,Ba3,BB
XS2081524675 Corp@,,Ba3,
US05253JAQ40 Corp@,,Aa3,AA-
XS1759562710 Corp@,BB-,B1,
XS1893648904 Corp@,,B2,B
XS2016010881 Corp@,,B2,
XS1809230474 Corp@,BB,B1,B+
XS1861032628 Corp@,BB,B1,B+
XS2100444772 Corp@,BB,B1,B+
XS1239210112 Corp@,,,
US86562MAH34 Corp@,,A1,A-
XS1637274124 Corp@,BBB-,,BB
XS2025575114 Corp@,BBB-,,
US85207UAE55 Corp@,B+ *+,B3 *+,B *+
USG22004AE89 Corp@,A+,A2,A
XS1589745170 Corp@,,Ba2,BB
XS2055625839 Corp@,BB-,B2,
XS1653470721 Corp@,,B1,
XS1972090119 Corp@,BB-,,
XS2100597256 Corp@,,Ba3,
XS1385999492 Corp@,A-u,A2,A
XS2025848297 Corp@,BB-,,
XS1580431143 Corp@,B,B2,
XS1627599654 Corp@,B,B2,B
US912810RU43 Corp@,AAAu,Aaa,
USY9384RAA87 Corp@,BB,Ba3,BB
USG9328DAG54 Corp@,WD,B3,B
USG9328DAP53 Corp@,,B3,B
XS1023280271 Corp@,BB+,Ba3,B+
USG9600GAA07 Corp@,BB,Ba2,
USG98149AE02 Corp@,,B1,BB- *-
XS1521768058 Corp@,,Ba3,B+
USG9844KAC39 Corp@,BB,B1,BB-
XS2100664544 Corp@,B,,
USN3700LAC92 Corp@,BB,Ba1,
XS2100655807 Corp@,,B2,
XS1991146892 Corp@,,Ba3,
XS1272206209 Corp@,,Ba3,B+
USV3855GAA86 Corp@,BB-,Ba1,
US44891CAH60 Corp@,,Baa1,BBB+
XS1813551584 Corp@,B+,,
XS2052949968 Corp@,BB-,Ba3,
USV4256QAA95 Corp@,BB-,Ba3,B+
USY7140WAA63 Corp@,BBB-,Baa2,
XS1541978851 Corp@,BB,B1,
XS1618597535 Corp@,BB,B1,
XS1870205819 Corp@,BB,,BB-
US55608YAA38 Corp@,A-,Baa2,BBB+
USY56607AA51 Corp@,B+,B1,B+
USL6401PAF01 Corp@,BB-,,BB-
USY6142NAB48 Corp@,B,B3u,B
USY57657AA90 Corp@,BB,Ba2,
USY59505AA82 Corp@,B+,B1,B+
USG5975LAA47 Corp@,,Ba2 *-,BB *-
USQ3919KAJ09 Corp@,WD,Ba1,BB+
XS1535978800 Corp@,,Ba2,
XS1568303132 Corp@,BBB-,Baa3,BBB-
XS1646912250 Corp@,,Ba3,
USN3700LAB10 Corp@,BB,Ba1,
XS1751017218 Corp@,B,B2,
XS2034868047 Corp@,B,B1,
US45580KAF57 Corp@,,A1,A
US45580KAG31 Corp@,,A1,A
XS1588422201 Corp@,BB-,,BB-
USP09646AC75 Corp@,BBB+,Baa1,BBB+
US056752AB41 Corp@,A,A3,
US056752AF54 Corp@,A,A3,
US056752AH11 Corp@,A,A3,
XS0521073428 Corp@,,Baa3,BBB
XS1350670839 Corp@,BBB,Baa1,
XS1496345684 Corp@,A-,,BBB
XS1612471117 Corp@,A,A3,A-
XS0498952679 Corp@,BB-,NR,B+
XS0794901727 Corp@,BB-,,B+
XS1227592703 Corp@,BBB-u,Baa3,BB+
XS1792571652 Corp@,BBB,Baa3,BBB-
USU09513HQ56 Corp@,,A1,A+
USP14486AD93 Corp@,WD,Ba2,BB-
US06051GFT13 Corp@,A+,A2,A-
XS1461849447 Corp@,A+,A2,A-
US06051GGP81 Corp@,A+,A2,A-
US09681MAC29 Corp@,A-,,A-
US09681MAD02 Corp@,A-,,A-
XS1252209322 Corp@,A,A1,
XS1513492188 Corp@,,A1,A+
US166764AR12 Corp@,,WR,NR
US12634GAA13 Corp@,,A1,A+
XS1644429695 Corp@,A-,,BBB
XS1788511951 Corp@,A-,,BBB
XS2011969065 Corp@,A-,Baa2,
USG22004AB41 Corp@,A+,A2,A
XS1725552928 Corp@,A,A2,
XS1508917017 Corp@,A,Baa1,BBB+
XS1645684587 Corp@,A,Baa1,BBB+
XS1262977264 Corp@,,A1,A
XS1422840733 Corp@,A,A2,
XS1650055624 Corp@,A+,A2,
XS1650054734 Corp@,A+,A2,
XS1733220898 Corp@,,Baa2,BBB+
XS1733221516 Corp@,,Baa2,BBB+
US20030NCQ25 Corp@,WD,WR,A-
XS1727497049 Corp@,,A1,
XS1727496744 Corp@,,A1,
XS1301292261 Corp@,,A1,A+
XS1593370734 Corp@,,Baa1,
XS1599333181 Corp@,,Baa1,
XS1912822647 Corp@,,Baa1,BBB+
USY29011CK05 Corp@,,Baa1,BBB+
USG2120QAB26 Corp@,A+,A1,A+
USU2339CCH98 Corp@,A-,A3,A-
US24702RAQ48 Corp@,BB,Ba2,BB-
XS2008566197 Corp@,BBB+,,
XS1387925958 Corp@,A,A3,
XS0551313686 Corp@,WD,Baa1,
XS1303791336 Corp@,A,A1,
US026874BW66 Corp@,BBB+,Baa1,BBB+
US02005NAZ33 Corp@,BBB-,,BBB-
XS0619547838 Corp@,A-,Baa2,BBB
XS1040431519 Corp@,A+,A1,
XS1871116171 Corp@,A+,A1,A
US05253JAT88 Corp@,AA-,Aa3,AA-
AU3CB0215788 Corp@,,,A+
AU3CB0237873 Corp@,,Aa1,AA+
SG6YH3000007 Corp@,,A3,
USN4717BAD84 Corp@,B,,B
XS1954740285 Corp@,BB-,,
XS1743535228 Corp@,BBB,Baa3,
XS2078556342 Corp@,,B2,
XS1976473618 Corp@,B+,B3,
XS1594400100 Corp@,BB,B1,B+
XS1594400449 Corp@,BB,B1,B+
XS2075937297 Corp@,BB,B1,B+
XS1642682410 Corp@,,Ba3,B+
XS1903671698 Corp@,B+,B2,B
XS1645684660 Corp@,A,Baa1,BBB+
USG21184AA79 Corp@,A,A3,A-
XS1867060722 Corp@,BBB,,
XS1750975200 Corp@,BB,B1,BB-
XS1814979123 Corp@,BB,,
XS1513700127 Corp@,BB,,BB-
US172967GT25 Corp@,A-,Baa2,BBB
US17325FAN87 Corp@,A+,Aa3,A+
US172967KB60 Corp@,A,A3,BBB+
US172967KV25 Corp@,A,A3,BBB+
USY2029SAF12 Corp@,B,B2,B
XS1602480334 Corp@,BB-,B1,B+
USG9328DAM23 Corp@,,B3,B
XS1746134516 Corp@,BB,Ba2,
XS1909074491 Corp@,,,BB
XS2030531938 Corp@,,Ba3,B+
XS1973241125 Corp@,B,,
XS1788498167 Corp@,BB-,,B+
XS1973630889 Corp@,,B2,B-
US80283LAP85 Corp@,A+,Aa3,A
US44891CAR43 Corp@,,Baa1,BBB+
US44891CBC64 Corp@,,Baa1,BBB+
US428236BV43 Corp@,BBB+,Baa2,BBB
XS0565475505 Corp@,,,A-
XS2000500707 Corp@,,A2,
US42824CAG42 Corp@,BBB+,Baa2,BBB
US428236BF92 Corp@,BBB+,Baa2,BBB
US428236BQ57 Corp@,BBB+,Baa2,BBB
XS1577688085 Corp@,,WR,
XS2001732010 Corp@,A,Baa1,
XS1881711250 Corp@,,,A
USG2178XAA03 Corp@,A-,A2,A
XS0775625246 Corp@,,Baa1,BBB
XS1245197998 Corp@,,Baa1,BBB
SG6SD2000009 Corp@,,A2 *-,
USG23530AA92 Corp@,,A1,A+
USG21895AB60 Corp@,A+,A2,A
AU3CB0161123 Corp@,AA+,Aa1,AAA
USG2444PAA50 Corp@,A,A3,BBB+
XS1485578535 Corp@,BBB-,Ba2,
US00850XAC20 Corp@,,A1,A
AU3CB0235075 Corp@,AAA,Aaa,AAA
XS1199968998 Corp@,NR,,NR
US0258M0DX44 Corp@,A,A2,A-
US00182FBA30 Corp@,AA-,A1,AA-
XS1430445210 Corp@,A,A2,A
XS1634368507 Corp@,A,A2,A
USG01719AA42 Corp@,A+,A1,A+
US01609WAP77 Corp@,A+,A1,A+
XS1900869683 Corp@,,Ba3,BB
US05946KAD37 Corp@,A,A3,A-
XS1163232900 Corp@,WD,WR,NR
XS1768437300 Corp@,BB-,B2,B
SG3267000002 Corp@,,A2 *-,
US14913Q2N89 Corp@,A,A3,A
US14913Q2A68 Corp@,A,A3,A
AU3CB0245751 Corp@,AA-,Aa3,AA-
US2027A1HW00 Corp@,AA-,Aa3,AA-
AU3CB0255636 Corp@,AA-,Aa3,AA-
XS0520490672 Corp@,BBB,Baa3,
US404280AK50 Corp@,A+,A2,A
XS1515239942 Corp@,A,,BBB+
USY3815NAU55 Corp@,,Baa1,BBB+
USY3815NAY77 Corp@,BBB+,Baa1,BBB+
XS0563742138 Corp@,WD,Baa2,A-
US45604HAC16 Corp@,AA-,Aa2,AA-
XS1325770722 Corp@,WD,A2,
XS1237348070 Corp@,,A1,
USY3R559AK81 Corp@,A,NR,A
USY3R559AN21 Corp@,A,A2,
USM28368AB04 Corp@,A+,A2,
XS1720054383 Corp@,BB-,,
XS1883345719 Corp@,BB-,,
XS1165130219 Corp@,BBB-,Baa2,BBB-
US302154AW97 Corp@,AA-,Aa2,AA
US302154BA68 Corp@,AA-,Aa2,AA
US302154BV06 Corp@,AA-,Aa2,AA
AU3CB0242535 Corp@,AA-,Aa2,AA
US302154CP29 Corp@,AA-,Aa2,AA
USU2526DAB56 Corp@,BBB-,Baa3,BBB-
USU2526DAG44 Corp@,BB+,Ba2,BB
US268648AQ50 Corp@,BB,WR,BB-
XS1684818377 Corp@,A+,A2,
XS1914920993 Corp@,A+,,A
USG3066LAA91 Corp@,BBB,Baa2,BBB+ *-
XS1227814883 Corp@,A+,A3,
XS1716831570 Corp@,A+,A3,
XS1418855455 Corp@,A+,,
XS1580430681 Corp@,B,B2,
SG7CG9000007 Corp@,,,BBB+
US345397VU41 Corp@,BBB,Ba1,BBB-
XS1490622971 Corp@,,,A-
USG91703AA90 Corp@,A+,A3u,A-
AU3CB0213098 Corp@,BBB+,Baa1,BBB+
XS1662749743 Corp@,,Ba2,
US37045XBD75 Corp@,BBB,Baa3,BBB
US38141GVP61 Corp@,A,A3,BBB+
XS1916306456 Corp@,,A2,
XS1170096454 Corp@,,,BBB
US44891CAD56 Corp@,,Baa1,BBB+
XS1716970345 Corp@,A,A2,
XS1128264758 Corp@,BB+,Ba2u,BB
USN44525AA67 Corp@,BB-,Ba3,
XS1683356874 Corp@,A,,
XS1879569355 Corp@,,A1,
USY3860XAC75 Corp@,BB+u,Baa3,BBB-
XS1274011102 Corp@,,Baa3,BBB-
USY20721BC22 Corp@,BBB,Baa2,BBB
USN4578BQA53 Corp@,AA-,Aa3,A+
USN45780CZ97 Corp@,AA-,Aa3,A+
USG5320CAA65 Corp@,A,A2,A
XS2024662228 Corp@,,Aa2,AA
XS0507147725 Corp@,,Baa3,BBB
XS1908898668 Corp@,,,AA
US53947QAA58 Corp@,A-,Baa1,BBB
US53944VAP40 Corp@,A+,Aa3,A+
US53944VAS88 Corp@,A+,Aa3,A+
XS1633950453 Corp@,BBB,,
XS1772325210 Corp@,BB,,
XS1920256564 Corp@,BB,,
XS1637076164 Corp@,BBB-,Ba2,
XS0611586263 Corp@,,A3,BBB+
XS1431266847 Corp@,,A3,BBB+
USG2113BAA64 Corp@,A-,A3,
XS1481806799 Corp@,A,Baa1,
XS1809984625 Corp@,BB-,B1,
XS2037190514 Corp@,BB-,B1,
XS1070531402 Corp@,AA-,Aa3,A+
XS1403447292 Corp@,A,A3,BBB+
US172967LC35 Corp@,A,A3,BBB+
US50065KAE29 Corp@,,Aa2,AA
US50065TAC71 Corp@,AA-,Aa2,AA
US50066CAA71 Corp@,AA-,Aa2,AA
XS1900228971 Corp@,BB-,,
USY47606AF80 Corp@,BBB+u,Baa1,BBB+
XS1717207960 Corp@,BBB+,Baa1,BBB+
XS1341490602 Corp@,WD,Aa2,
US50066RAC07 Corp@,AA-,Aa2,AA
XS0526235535 Corp@,,Baa3,BBB-
USY49140AA76 Corp@,,A1,A
XS0654493823 Corp@,BBB-,Baa2,
XS0558268891 Corp@,AA,Aa2,AA
US47215PAB22 Corp@,,Baa2,BBB
US46623EKG34 Corp@,AA-,A2,A-
XS1883352681 Corp@,,A1,AA-
USU65478AX42 Corp@,,Baa1,BBB+
USU65478BJ49 Corp@,,Baa1,BBB+
USU65478BE51 Corp@,,Baa1,BBB+
US50066CAK53 Corp@,AA-,Aa2,AA
USY46006AB17 Corp@,A-,A1,A+
US606822AG93 Corp@,A,A1,A-
US606822AW44 Corp@,A,A1,A-
US60937GAB23 Corp@,B,B3,B
USJ4599LAJ10 Corp@,,A1,A-
US60687YAE95 Corp@,,A1,A-
USJ45992PU24 Corp@,,A1,A
USJ0423YBW33 Corp@,,A1,A
XS1309490966 Corp@,,A3,A-
XS1485531492 Corp@,,A3,A-
USJ4706DGT12 Corp@,,A3,A-
XS0531622404 Corp@,,Aa1,AA
US74153XAS62 Corp@,AA-,Aa3,AA-
US71568QAA58 Corp@,BBB,Baa2,BBB
US69353REU86 Corp@,A+,A2,A
US71567RAA41 Corp@,BBB,Baa2,BBB
USY7138AAA89 Corp@,BBB,Baa2,BBB
USY7138AAC46 Corp@,BBB,Baa2,BBB
XS1805359939 Corp@,,B2,B
XS2030333384 Corp@,,B2,
US74432QBP90 Corp@,A-,A3,A
XS1477558487 Corp@,,A3,A-
XS1202089428 Corp@,,A3,A-
US822582BG61 Corp@,AA-u,Aa2,AA-
XS1619012450 Corp@,,,A-
XS1321108836 Corp@,AA-,Aa2,A+
XS1821498612 Corp@,AA-,Aa2,A+
XS0702140756 Corp@,,A1,A
USG82296AB34 Corp@,A-,,A-
US86562MAE03 Corp@,,A1,A-
USG8200TAB64 Corp@,,A1,A+
US65540KAA34 Corp@,A-,A1,A+
XS1245675563 Corp@,,A1,A+
XS1823153033 Corp@,BB,Ba2,
XS1996313737 Corp@,BB,Ba2,
US65557HAD44 Corp@,A+,Baa1,A-
US064159GW01 Corp@,AA-,Aa2,A+
XS1224417847 Corp@,A,,
SG6XA6000001 Corp@,,Aaa,
XS0835676353 Corp@,BBB-,,BBB-
USY68868AA92 Corp@,,A2,A-
USC75088AA97 Corp@,WD,Baa1,BBB+
XS1310192031 Corp@,A,,
XS0923450414 Corp@,A+,Aa3,
XS0549116530 Corp@,A-,A2,A-
XS1034375631 Corp@,AA-,Aa3,A+
US21685WDF14 Corp@,A,Baa1,BBB+
US78012KJA60 Corp@,AA,Aa2,AA-
AU3CB0227221 Corp@,NR,WR,NR
XS1733878810 Corp@,BBB-,Baa3,
XS1950819729 Corp@,BB-,,
US852061AR17 Corp@,B+ *+,B3 *+,B *+
USY8137FAK40 Corp@,B,B2,B
USY8137FAQ10 Corp@,B,B2,B
USG8201JAB73 Corp@,,A1,A+
XS0520042416 Corp@,,Baa1,A-
US80281LAC90 Corp@,A,Baa1,BBB
US80281LAE56 Corp@,A,Baa1,BBB
US865622BV55 Corp@,,A1,A
USG8669QAB61 Corp@,,Baa1,BBB+
XS1388084169 Corp@,BBB-,Baa1,BBB-
AU3CB0224046 Corp@,AA-,Aa3,AA-
US59217HBV87 Corp@,AA-,Aa3,AA-
US6174467P85 Corp@,A,A3 *+,BBB+
XS1115524016 Corp@,A,A3 *+,BBB+
US6174824M37 Corp@,A-,Baa2 *+,BBB
US61746BEA08 Corp@,A,A3 *+,BBB+
AU3CB0237337 Corp@,,Aa3,AA-
US6325C1BJ78 Corp@,AA-,Aa3,AA-
US05584KAA60 Corp@,A+,Baa2,A-
US05578DAW20 Corp@,A+,A1,A+
XS1733860362 Corp@,BBB,,BBB-
US00287YAX76 Corp@,,Baa2,A- *-
XS0860855344 Corp@,,A1,A+
US00101JAH95 Corp@,WD,Ba3,BB-
USN2823BBD21 Corp@,A-u,A2,A+
US02209SAN36 Corp@,BBB,A3,BBB
HK0000142494 Corp@,,,A
US00928QAP63 Corp@,BBB- *+,Baa3 *,BBB-
US031162BN92 Corp@,BBB+u,Baa1,A-
US03674PAL76 Corp@,BB-,B1,BB-
XS1601180836 Corp@,A+,A2,A
XS1428468885 Corp@,BBB-,,BB+
US82481LAC37 Corp@,,Baa2,BBB+
XS1718991414 Corp@,BBB+,Baa1,BBB+
XS1528227744 Corp@,A,A2,
XS1506604088 Corp@,,A1,A
USG8450LAF16 Corp@,,A1,A+
XS0600103401 Corp@,Au,A1,A
SG6WB2000005 Corp@,,A1,A
US82460EAH36 Corp@,,Aa3,A+
US89152UAB89 Corp@,AA-u,Aa3,A+
AU3CB0243756 Corp@,,A2,A-
USG8850LAB65 Corp@,A+,A1,
US89233P5F99 Corp@,A+u,Aa3,AA-
XS1725308859 Corp@,BB-,B1,B+
XS1121907676 Corp@,,Ba3,B+
XS1567905754 Corp@,A+u,Aa3,AA-
US90261XGD84 Corp@,AA-,Aa3,A+
XS1498408936 Corp@,A+,A1u,A
US91127LAA89 Corp@,AA-,Aa1,AA-
AU3CB0222255 Corp@,,,AA+
AU3CB0220226 Corp@,,Aa1,
USV96177AA46 Corp@,BBB-,Baa3,BBB-
XS1525419617 Corp@,A,,
USU9273ACE39 Corp@,,A3,BBB+
USU9273ACV53 Corp@,,A3,BBB+
XS1599172746 Corp@,,A3,
XS1294535833 Corp@,BBB+,,BBB
AU3CB0198992 Corp@,,A2,A-
US94974BGR50 Corp@,A+,A2,A-
USU0942MAA72 Corp@,BB-,B2,B
US22536PAE16 Corp@,A+,Baa1,A-
XS1703056470 Corp@,A+,A1,
US20030NBR17 Corp@,A-,A3,A-
US228189AB23 Corp@,,Ba3,BB-
US165167CL94 Corp@,WD,Caa3,CCC-
US163851AB45 Corp@,,Ba3,B+
US172967GL98 Corp@,A,A3,BBB+
USG2178XAB85 Corp@,A-,A2,A
XS0846197019 Corp@,,A1,A+
USG8200TAG51 Corp@,,A1,A+
USG8201NAE25 Corp@,,A1,
USG8201NAF99 Corp@,,A1,A+
USG8201NAG72 Corp@,,A1,A+
XS1839375539 Corp@,BBB-,Baa3,
XS1901718509 Corp@,BBB-,Baa3,
SG7R77941010 Corp@,,Aa2,AA
US843646AL40 Corp@,BBB+,Baa1,BBB+
AU3CB0238228 Corp@,,A3,A-
XS0899374002 Corp@,,WR,NR
US00206RCL42 Corp@,A-,Baa2,BBB
XS1044893540 Corp@,AA-,Aa3,AA-
XS1511025907 Corp@,A,A2,
XS1410341389 Corp@,BB+,Baa3,BBB-
XS1379108456 Corp@,,A2,A-
XS1264901601 Corp@,A,,A-
US06739GBP37 Corp@,A-,Baa3,BBB-
AU3CB0253771 Corp@,A,Baa2,BBB
USP16260AA28 Corp@,BBB+,,BBB+
USY0606WBU37 Corp@,BBB+,Baa1,BBB+
US98105HAB69 Corp@,BBB+,Baa1,A-
US961214CV30 Corp@,AA-,Aa3,AA-
XS1031792119 Corp@,NR,WR,NR
XS1045887863 Corp@,AA-,Aa3,AA-
XS1097953050 Corp@,,Aa3,AA-
XS1648466016 Corp@,A-,A3,
XS1316202255 Corp@,,Baa2,BBB+
XS1809258210 Corp@,,Ba3,B+
XS1252173387 Corp@,BBB+,Baa2,BBB-
XS2008157856 Corp@,,B2,
US25470XAL91 Corp@,WD,B1 *-,B-
US278642AS20 Corp@,BBB,Baa1,BBB+
USN30707AF53 Corp@,A-,Baa2,BBB+
US302154CQ02 Corp@,AA-,Aa2,AA
USU2526DAC30 Corp@,BBB-,Baa3,BBB-
US29278NAL73 Corp@,BBB-,Baa3,BBB-
XS1533915721 Corp@,BB+,Ba2,BB+
US31562QAF46 Corp@,BBB-,Ba2,BB+ *+
USQ3919KAL54 Corp@,WD,Ba1,BB+
US35671DAZ87 Corp@,BB+,Ba1,BB
USC3535CAF52 Corp@,B,Caa1u,B-
US37185LAG77 Corp@,,B1,B+
US402635AE62 Corp@,,Caa2,B
US37045XCL82 Corp@,BBB,Baa3,BBB
US38141GWU48 Corp@,A,A3,BBB+
US44891CAW38 Corp@,,Baa1,BBB+
US404121AG00 Corp@,BB,Ba2,BB-
USC4R803AE61 Corp@,,B3,B
USY3815NBA82 Corp@,,Baa1,BBB+
XS1508390090 Corp@,B+,B3,
US46625HJJ05 Corp@,A+,A3,BBB+
US46647PBB13 Corp@,AA-,A2,A-
USU65478BN50 Corp@,,Baa1,BBB+
USY4899GAW34 Corp@,AA-,Aa2,AA
US50050HAK23 Corp@,A,Aa3,A+
USY49915BA11 Corp@,A,A3,A-
XS0919504562 Corp@,BBB+,Baa2,BBB
US53944YAC75 Corp@,A+,A3,BBB+
US53944YAK91 Corp@,A+,A3,BBB+
USC58437AA91 Corp@,BB-,B3,B-
US144577AH67 Corp@,,B2,BB-
USU16708AL09 Corp@,,A2,A-
US18538RAG83 Corp@,,Ba3,BB-
XS0928126340 Corp@,,A3,A-
XS0856597314 Corp@,A-,,BBB+
US126650BZ20 Corp@,,Baa2,BBB
XS0483583737 Corp@,NR,WR,
USU2339CDG07 Corp@,A-,A3,A-
US25470DAH26 Corp@,BBB-,Baa3,BBB-
US251526BR93 Corp@,BBB,Baa3,BBB-
US00216NAA72 Corp@,,A1,AA-
USG0686BAA73 Corp@,BBB-,Baa3,BBB-
US035287AG69 Corp@,BBB- *-,Ba3 *-,BB *-
USN15516AA01 Corp@,BBB-,,BBB-
US06051GGK94 Corp@,A+,A2,A-
XS0925008533 Corp@,A-,,A-
USC10602AW79 Corp@,B-u *+,Caa1,B-
US10373QAL41 Corp@,Au,A1,A-
US06738EBE41 Corp@,A,Baa2,BBB
US09659X2E17 Corp@,A+,Baa1,A-
XS1788516679 Corp@,B+,B2,
XS1945941786 Corp@,BB-,B1,
US552953CC35 Corp@,BBu,Ba3,BB-
US61747YDU64 Corp@,A-,Baa2 *+,BBB
USU62472AF96 Corp@,BBB- *+,Baa3,BBB-
US63254AAE82 Corp@,,Aa3,AA-
US63254ABA51 Corp@,,Aa3,AA-
US63861WAD74 Corp@,A,Baa1,BBB+
US05578BAA44 Corp@,A+,A1,A+
USC6700PAA96 Corp@,BB,Caa1,B-
USG65309AA76 Corp@,,B3,B
US78442FEQ72 Corp@,BB,Ba3,B+
US674215AE80 Corp@,,B2,B+
US71654QBG64 Corp@,BB+,Baa3,BBB+
US718172BU28 Corp@,A,A2,A
US74733VAC46 Corp@,WD,Ba3,BB-
US74819RAP10 Corp@,,Ba2,BB-
XS0866438475 Corp@,A-,A2,A-
US747525AR43 Corp@,,A2,A-
US780097AY76 Corp@,A-,Baa3,BB+
XS1620297462 Corp@,,Baa1,
SG6VE4000009 Corp@,,Baa1,
XS1943451788 Corp@,,Ba3,BB-
US900123CA66 Corp@,BB-,B1,
US75281ABA60 Corp@,,B1,BB-
USU81193AL54 Corp@,,Ba3,BB+
USG8449VAB20 Corp@,A+,A1,A+
US82460EAK64 Corp@,A,Aa3,A+
XS0873639701 Corp@,Au,A1,A+
US85172FAL31 Corp@,WD,Ba3,BB-
XS0836488485 Corp@,,A3,A-
US852061AS99 Corp@,B+ *+,B3 *+,B *+
XS1371532208 Corp@,A,A1,
XS1437622977 Corp@,A,A1,
US09062XAC74 Corp@,,Baa1,A-
US06367TJX90 Corp@,AA,Aa2,A+
US06367WRC90 Corp@,AA-,A2,A-
US06738EAG08 Corp@,A,Baa2,BBB
US09659X2A94 Corp@,A+,Baa1,A-
USP1507SAC19 Corp@,BBB+,A3,NR
US05964HAG02 Corp@,A-,Baa1,A-
XS1489409240 Corp@,A+,A3,
US966387AP71 Corp@,,B2,CCC+
US961214DZ35 Corp@,AA-,Aa3,AA-
XS1954961295 Corp@,BB,,BB-
XS2027337786 Corp@,BB,,BB-
XS1412748136 Corp@,,A1,
USG59606AA46 Corp@,,Baa1,BBB+
AU3FN0040291 Corp@,A-,A3,BBB+
XS1575994535 Corp@,NR,WR,NR
XS1265180213 Corp@,BBB+,Baa1,
XS1450327686 Corp@,BBB+,Baa1,
XS0874014722 Corp@,A-,Baa2,BBB-
US80281LAF22 Corp@,A,Baa1,BBB
USQ8809VAD12 Corp@,WD,Baa1,BBB+
XS1576037284 Corp@,B+,B2,
USG9007CAA83 Corp@,,B1,B
XS1760780731 Corp@,B+,B2,
XS1694216687 Corp@,A,A1,
USU91505AJ35 Corp@,WD,B2,B
US92343VDW19 Corp@,A-,Baa1,BBB+
US94974BFJ44 Corp@,A,A3,BBB+
