,CAT
SG6XA6000001 Corp@,IG
USG7306BAA29 Corp@,IG
XS1252209322 Corp@,IG
US74819RAP10 Corp@,HY
XS1801151371 Corp@,HY
SG7V23953782 Corp@,NR
USG2176WAA48 Corp@,IG
XS1725308859 Corp@,HY
US822582BG61 Corp@,IG
US966387AP71 Corp@,HY
XS1034375631 Corp@,IG
US23304SAB97 Corp@,IG
HK0000361730 Corp@,IG
US06738EAQ89 Corp@,IG
XS0550437288 Corp@,IG
US06367WRC90 Corp@,IG
XS1795479291 Corp@,HY
XS1823770828 Corp@,IG
XS1565064273 Corp@,IG
US44891CAS26 Corp@,IG
XS1498418224 Corp@,HY
XS1807463408 Corp@,IG
USY3815NAU55 Corp@,IG
USU09513HQ56 Corp@,IG
XS1713193586 Corp@,IG
XS1230332055 Corp@,IG
US09659X2E17 Corp@,IG
XS1423777561 Corp@,IG
XS2050860308 Corp@,HY
US056752AH11 Corp@,IG
XS1814979123 Corp@,HY
XS2100664544 Corp@,HY
US251526BR93 Corp@,IG
XS1650145706 Corp@,IG
US0258M0DX44 Corp@,IG
USG2444PAA50 Corp@,IG
HK0000332574 Corp@,IG
XS1219421861 Corp@,IG
USY71300AA84 Corp@,HY
SG72C9000002 Corp@,IG
XS1075309754 Corp@,IG
AU3CB0228583 Corp@,IG
US302154CP29 Corp@,IG
CA6174468D43 Corp@,IG
CA918423AW48 Corp@,IG
XS0529025172 Corp@,IG
GB00BN65R198 Corp@,IG
XS1920256564 Corp@,HY
XS1317967146 Corp@,IG
US228189AB23 Corp@,HY
AU3CB0237337 Corp@,IG
CA63306AGE07 Corp@,IG
AU3CB0237873 Corp@,IG
XS1704599460 Corp@,IG
XS0521073428 Corp@,IG
US302154BV06 Corp@,IG
HK0000195435 Corp@,IG
XS1877869088 Corp@,IG
USG9328DAG54 Corp@,HY
XS1809984625 Corp@,HY
XS1821498612 Corp@,IG
USY8137FAF54 Corp@,HY
XS1725337445 Corp@,IG
AU3CB0227858 Corp@,NR
XS1645684587 Corp@,IG
AU3CB0237683 Corp@,IG
XS1262977264 Corp@,IG
XS1565437057 Corp@,NR
USJ54675AC78 Corp@,IG
XS1845130217 Corp@,IG
USG3066LAA91 Corp@,IG
USG22004AE89 Corp@,IG
US6174824M37 Corp@,IG
XS1573134522 Corp@,IG
XS1274011102 Corp@,IG
XS1876052025 Corp@,HY
AU3CB0229862 Corp@,IG
USU2526DAB56 Corp@,IG
XS1821080576 Corp@,IG
XS1416409503 Corp@,IG
XS1706939227 Corp@,IG
XS1247821397 Corp@,IG
US38141GWU48 Corp@,IG
XS1766548991 Corp@,IG
USG9328DAM23 Corp@,HY
US98105HAB69 Corp@,IG
XS1589745170 Corp@,HY
XS1582346703 Corp@,IG
US552953CC35 Corp@,HY
US00287YAX76 Corp@,IG
CA06368BJ907 Corp@,IG
AU3CB0206134 Corp@,NR
XS1303791336 Corp@,IG
USJ54675AB95 Corp@,IG
USJ8129EAW87 Corp@,IG
XS1525419617 Corp@,IG
XS1749435324 Corp@,HY
USG8449VAB20 Corp@,IG
XS1856799421 Corp@,IG
XS1933891043 Corp@,HY
XS1813551584 Corp@,HY
XS1511800275 Corp@,IG
XS1823212904 Corp@,IG
XS1163232900 Corp@,NR
XS0611586263 Corp@,IG
USY20721BD05 Corp@,IG
XS1679350014 Corp@,IG
XS1750007632 Corp@,IG
US17325FAN87 Corp@,IG
XS1503116599 Corp@,IG
XS1239210112 Corp@,NR
US172967GT25 Corp@,IG
XS1372846003 Corp@,IG
HK0000138211 Corp@,IG
XS1718991414 Corp@,IG
USY7140DAA82 Corp@,IG
XS1350670839 Corp@,IG
US53944VAS88 Corp@,IG
XS1044893540 Corp@,IG
CA580135CD12 Corp@,IG
XS1299710530 Corp@,IG
USN4578BQA53 Corp@,IG
USY20721AU39 Corp@,IG
US06738EAG08 Corp@,IG
XS1556169206 Corp@,HY
XS1973630889 Corp@,HY
AU3CB0198992 Corp@,IG
USY8137FAP37 Corp@,HY
US71654QBG64 Corp@,IG
US46625HJJ05 Corp@,IG
XS2075937297 Corp@,HY
XS1550144072 Corp@,IG
AU3FN0043188 Corp@,IG
US18538RAG83 Corp@,HY
US50066RAC07 Corp@,IG
HK0000034147 Corp@,IG
US50064FAK03 Corp@,IG
USY7136YAA83 Corp@,IG
VGG2214PAX39 Corp@,IG
XS2044279334 Corp@,IG
US06739GBP37 Corp@,IG
XS1627599654 Corp@,HY
XS1728444131 Corp@,HY
US46647PBB13 Corp@,IG
XS1831884702 Corp@,HY
USG8200TAB64 Corp@,IG
XS1982113208 Corp@,IG
XS1508493498 Corp@,HY
USJ4706DGT12 Corp@,IG
HK0000285277 Corp@,IG
XS1772752710 Corp@,IG
US10373QAL41 Corp@,IG
XS1965457275 Corp@,IG
XS1722863054 Corp@,IG
XS1575984734 Corp@,HY
US44891CAV54 Corp@,IG
XS1945941786 Corp@,HY
USY7138AAC46 Corp@,IG
US82481LAC37 Corp@,IG
XS1713316252 Corp@,IG
USY9485PAB86 Corp@,IG
USV4256QAA95 Corp@,HY
XS1344520488 Corp@,IG
XS1805359939 Corp@,HY
SG72A8000007 Corp@,IG
SG6ZH4000003 Corp@,IG
XS0803109270 Corp@,IG
US539439AS89 Corp@,IG
USG2113BAA64 Corp@,IG
HK0000126687 Corp@,IG
USG82296AB34 Corp@,IG
US455780CC89 Corp@,IG
XS1216009784 Corp@,IG
US404280AK50 Corp@,IG
XS0928126340 Corp@,IG
US82460EAH36 Corp@,IG
US50066CAL37 Corp@,IG
XS1943451788 Corp@,HY
XS1646912250 Corp@,HY
AU0000KOPHA4 Corp@,IG
XS1092182606 Corp@,NR
HK0000137866 Corp@,IG
XS0841678278 Corp@,IG
XS1403868125 Corp@,IG
USG98149AE02 Corp@,HY
CA89117FMA44 Corp@,IG
XS1402929589 Corp@,IG
XS1751178499 Corp@,IG
XS1891980358 Corp@,IG
AU3CB0250363 Corp@,IG
XS2016010881 Corp@,HY
USP16260AA28 Corp@,IG
XS2030333384 Corp@,HY
XS0860855344 Corp@,IG
XS1202242712 Corp@,IG
US05964HAG02 Corp@,IG
USN4717BAD84 Corp@,HY
XS1388084169 Corp@,IG
XS1438451848 Corp@,IG
SG6W16984513 Corp@,IG
XS1596070547 Corp@,IG
XS1768437300 Corp@,HY
XS1792571652 Corp@,IG
US00216NAA72 Corp@,IG
US05946KAD37 Corp@,IG
XS1744630341 Corp@,IG
XS1578089234 Corp@,IG
HK0000256419 Corp@,IG
USG8850LAC49 Corp@,IG
AU3CB0250355 Corp@,IG
HK0000249703 Corp@,IG
XS1594400100 Corp@,HY
XS1703056470 Corp@,IG
XS2026710553 Corp@,IG
XS1515239942 Corp@,IG
US20030NBR17 Corp@,IG
HK0000545605 Corp@,IG
US80281LAF22 Corp@,IG
CA44810ZBA71 Corp@,IG
US90261XGD84 Corp@,IG
US94974BGR50 Corp@,IG
XS1673684509 Corp@,IG
XS2008300597 Corp@,IG
CA037833CY47 Corp@,IG
HK0000067741 Corp@,IG
USG8539EAB14 Corp@,HY
HK0000416336 Corp@,IG
XS0874014722 Corp@,IG
XS0531622404 Corp@,IG
CA13509PCL54 Corp@,IG
US63254AAL26 Corp@,IG
XS1795377701 Corp@,IG
XS0468625545 Corp@,IG
XS1265180213 Corp@,IG
XS0701035676 Corp@,IG
XS1498408936 Corp@,IG
CA06368B2H05 Corp@,IG
XS1428468885 Corp@,IG
US44891CAH60 Corp@,IG
XS1512966372 Corp@,HY
XS1824235482 Corp@,IG
XS1586341981 Corp@,HY
XS1435072548 Corp@,IG
USU65478BP09 Corp@,IG
US85172FAL31 Corp@,HY
XS1405888576 Corp@,IG
XS1991146892 Corp@,HY
XS1644429695 Corp@,IG
XS1581103428 Corp@,HY
XS1225009932 Corp@,IG
XS1602480334 Corp@,HY
US064159KJ44 Corp@,IG
HK0000331998 Corp@,IG
XS1854172043 Corp@,IG
XS2030531938 Corp@,HY
XS2012984154 Corp@,IG
SG7NA7000009 Corp@,IG
SG6VE4000009 Corp@,IG
HK0000094711 Corp@,IG
USC10602AW79 Corp@,HY
XS1894671418 Corp@,IG
US91086QBB32 Corp@,IG
US60937GAB23 Corp@,HY
SG6W82985964 Corp@,IG
SG76F2000003 Corp@,IG
USU65478AX42 Corp@,IG
XS1955077596 Corp@,IG
US37185LAG77 Corp@,HY
SG7FH4000003 Corp@,IG
XS2099272846 Corp@,HY
AU3CB0260990 Corp@,IG
XS1823153033 Corp@,HY
SG6YH3000007 Corp@,IG
XS1936310371 Corp@,IG
US500630CW64 Corp@,IG
XS1958532829 Corp@,IG
XS1485745704 Corp@,IG
XS1472663670 Corp@,IG
CA891160LV34 Corp@,IG
XS1628013416 Corp@,IG
XS1481806799 Corp@,IG
US606822BH67 Corp@,IG
USG8201NAG72 Corp@,IG
US168863AV04 Corp@,IG
US65557HAD44 Corp@,IG
US45580KAG31 Corp@,IG
XS0852986313 Corp@,IG
XS1490622971 Corp@,IG
US09681MAA62 Corp@,IG
XS1959497782 Corp@,HY
XS2045892085 Corp@,IG
USY7140WAA63 Corp@,IG
VGG2214PAU99 Corp@,IG
US172967GL98 Corp@,IG
US00928QAP63 Corp@,IG
XS2034713516 Corp@,IG
SG79A8000002 Corp@,IG
USG59606AA46 Corp@,IG
US961214DZ35 Corp@,IG
XS2100444772 Corp@,HY
XS1894675674 Corp@,IG
XS1900228971 Corp@,HY
XS1810682564 Corp@,HY
HK0000135134 Corp@,IG
USY6142NAB48 Corp@,HY
XS0589885960 Corp@,IG
XS1788516679 Corp@,HY
XS1496760239 Corp@,HY
XS1402929746 Corp@,IG
XS1910821682 Corp@,IG
XS1421288538 Corp@,IG
XS1811206066 Corp@,HY
CA713448DQ80 Corp@,IG
XS2078556342 Corp@,HY
CA949746SY82 Corp@,IG
XS0993259844 Corp@,IG
XS1729851490 Corp@,HY
XS1685542141 Corp@,HY
CA8911454A94 Corp@,IG
XS0498952679 Corp@,HY
XS1190294063 Corp@,NR
XS1757816688 Corp@,IG
XS2016070190 Corp@,HY
XS1170096454 Corp@,IG
SG71B3000002 Corp@,IG
XS2025848297 Corp@,HY
XS0702140756 Corp@,IG
XS2008741295 Corp@,IG
SG79E1000001 Corp@,IG
AU3CB0255941 Corp@,IG
HK0000360526 Corp@,IG
XS1484844656 Corp@,IG
AU3CB0264778 Corp@,IG
US71568QAA58 Corp@,IG
SG70I9000003 Corp@,IG
SG6SD2000009 Corp@,IG
XS1720054383 Corp@,HY
XS1412748136 Corp@,IG
US606822AG93 Corp@,IG
USU2526DAC30 Corp@,IG
XS1694628527 Corp@,IG
US06051GGK94 Corp@,IG
US031162BN92 Corp@,IG
XS2024662228 Corp@,IG
XS1533837313 Corp@,IG
US195325BN40 Corp@,IG
USN15516AA01 Corp@,IG
XS1954961295 Corp@,HY
XS1438319656 Corp@,IG
USY2029SAH77 Corp@,HY
SG6T34979540 Corp@,IG
USY2029SAF12 Corp@,HY
XS1870219018 Corp@,HY
XS1788498167 Corp@,HY
XS2008157856 Corp@,HY
XS0551313686 Corp@,IG
HK0000490091 Corp@,IG
CA23384NBA42 Corp@,IG
USG9328DAP53 Corp@,HY
SG7V66955876 Corp@,IG
XS1245212037 Corp@,IG
XS1972090119 Corp@,HY
US53944YAC75 Corp@,IG
XS1991398352 Corp@,HY
XS1031792119 Corp@,NR
USY4836TBF76 Corp@,IG
USY49140AA76 Corp@,IG
XS1860402954 Corp@,HY
AU3CB0260206 Corp@,IG
XS1909074491 Corp@,HY
XS1070531402 Corp@,IG
XS1611005957 Corp@,HY
XS1403447292 Corp@,IG
XS1227592703 Corp@,IG
XS1891434604 Corp@,IG
XS2033262895 Corp@,IG
XS1138283236 Corp@,IG
USC58437AA91 Corp@,HY
XS1619012450 Corp@,IG
HK0000237526 Corp@,IG
AU3CB0215788 Corp@,IG
XS1082471423 Corp@,IG
US126650BZ20 Corp@,IG
XS2025842688 Corp@,IG
US24702RAQ48 Corp@,HY
USY3R559AN21 Corp@,IG
US21685WDF14 Corp@,IG
XS1068221073 Corp@,IG
XS1907273350 Corp@,IG
US55608YAA38 Corp@,IG
XS1599333181 Corp@,IG
USN2823BBD21 Corp@,IG
USN5276YAD87 Corp@,HY
XS2046591413 Corp@,IG
XS1707749229 Corp@,IG
XS1545506401 Corp@,HY
XS1746134516 Corp@,HY
US74733VAC46 Corp@,HY
XS1692346395 Corp@,HY
XS1717207960 Corp@,IG
XS2047474585 Corp@,IG
CA891160K519 Corp@,IG
XS1881711250 Corp@,IG
XS1725342288 Corp@,IG
XS2098539815 Corp@,IG
US06738EBE41 Corp@,IG
HK0000298981 Corp@,IG
XS1644428614 Corp@,IG
USY00130RW92 Corp@,IG
XS1602111566 Corp@,IG
XS1825455030 Corp@,IG
XS1614247812 Corp@,IG
XS1234958376 Corp@,IG
XS1090889947 Corp@,HY
XS1198224831 Corp@,NR
XS1387925958 Corp@,IG
XS1115524016 Corp@,IG
SG7JC5000005 Corp@,IG
USY46006AB17 Corp@,IG
XS1528227744 Corp@,IG
US91086QBC15 Corp@,IG
US172967KV25 Corp@,IG
XS2030334192 Corp@,HY
XS1937801212 Corp@,HY
US71568QAL14 Corp@,IG
XS1679508504 Corp@,IG
USG5975LAA47 Corp@,HY
XS1820763503 Corp@,IG
XS1330259018 Corp@,IG
USG24524AH67 Corp@,HY
XS1061711575 Corp@,IG
XS1824431313 Corp@,IG
US428236BV43 Corp@,IG
US86562MAH34 Corp@,IG
SG2C54964409 Corp@,IG
XS1389943686 Corp@,IG
USG9844KAC39 Corp@,HY
USG01719AA42 Corp@,IG
XS1618597535 Corp@,HY
US89233P5F99 Corp@,IG
AU3CB0227221 Corp@,NR
XS1458461883 Corp@,IG
XS1696908471 Corp@,IG
US92343VDW19 Corp@,IG
XS1430445210 Corp@,IG
XS0520042416 Corp@,IG
HK0000305893 Corp@,IG
USY4822WCT54 Corp@,IG
XS0919504562 Corp@,IG
XS1994698196 Corp@,IG
USY00130RP42 Corp@,IG
US06051GGP81 Corp@,IG
US82460EAK64 Corp@,IG
USN3700LAC92 Corp@,HY
XS1513492188 Corp@,IG
US03674PAL76 Corp@,HY
USM28368AB04 Corp@,IG
US20030NCQ25 Corp@,IG
US02005NAZ33 Corp@,IG
USY39694AA51 Corp@,HY
XS1593370734 Corp@,IG
SG7Z25966556 Corp@,IG
XS1291169867 Corp@,IG
XS1716970345 Corp@,IG
USY8137FAK40 Corp@,HY
XS1483161631 Corp@,IG
HK0000235009 Corp@,IG
US29278NAL73 Corp@,IG
CA780086RF34 Corp@,IG
XS1432416029 Corp@,IG
XS1992940913 Corp@,IG
XS1226268735 Corp@,IG
USN45780CZ97 Corp@,IG
US606822AW44 Corp@,IG
XS1690526204 Corp@,IG
USV00027AA65 Corp@,HY
XS1580430681 Corp@,HY
US06428YAA47 Corp@,IG
XS1960399530 Corp@,IG
US84612NAA19 Corp@,IG
XS1699636574 Corp@,IG
XS1485603408 Corp@,IG
XS1341490602 Corp@,IG
USY0606WBS80 Corp@,IG
XS1881014887 Corp@,IG
XS1982118264 Corp@,IG
AU3CB0229284 Corp@,IG
AU3CB0161123 Corp@,IG
US961214CV30 Corp@,IG
USY2R016AB16 Corp@,IG
XS1533810039 Corp@,IG
AU3CB0248151 Corp@,IG
XS0988382015 Corp@,IG
USC3535CAF52 Corp@,HY
XS2100655807 Corp@,HY
XS0938014742 Corp@,IG
US91086QBG29 Corp@,IG
US01609WAP77 Corp@,IG
US06051GFT13 Corp@,IG
XS1959337236 Corp@,IG
XS0494132540 Corp@,IG
CA05565QDS45 Corp@,IG
USY56607AA51 Corp@,HY
XS1165340883 Corp@,HY
USG5320CAA65 Corp@,IG
XS1883352681 Corp@,IG
US163851AB45 Corp@,HY
USY59515AA72 Corp@,HY
US00850XAC20 Corp@,IG
XS1727497049 Corp@,IG
US843646AL40 Corp@,IG
AU3CB0264513 Corp@,IG
XS1633950453 Corp@,IG
US404121AG00 Corp@,HY
XS1694216687 Corp@,IG
XS1508675334 Corp@,IG
XS1805368682 Corp@,IG
XS1301292261 Corp@,IG
US59217HAT41 Corp@,IG
US25470DAH26 Corp@,IG
XS1541978851 Corp@,HY
US71567RAD89 Corp@,IG
XS0794901727 Corp@,HY
XS1477558487 Corp@,IG
AU3CB0235075 Corp@,IG
XS1483944317 Corp@,HY
XS1871116171 Corp@,IG
XS1214407410 Corp@,IG
AU3CB0224046 Corp@,IG
US50065TAC71 Corp@,IG
XS1956836032 Corp@,IG
XS1193180921 Corp@,NR
XS2100597256 Corp@,HY
XS1701435742 Corp@,IG
US45580KAF57 Corp@,IG
XS1033744134 Corp@,NR
XS0913601950 Corp@,IG
XS1908898668 Corp@,IG
XS0899374002 Corp@,NR
USU2526DAG44 Corp@,HY
HK0000390861 Corp@,IG
XS1457527015 Corp@,IG
XS2081524675 Corp@,HY
XS0308427581 Corp@,IG
CA780086QL11 Corp@,IG
XS1321108836 Corp@,IG
XS1916306456 Corp@,IG
XS1810775145 Corp@,IG
US98105HAC43 Corp@,IG
XS1033977825 Corp@,IG
SG6VH1000005 Corp@,IG
US172967KB60 Corp@,IG
USY49915BA11 Corp@,IG
XS1979285571 Corp@,HY
USY7138AAE02 Corp@,IG
XS1264901601 Corp@,IG
XS0859029893 Corp@,IG
USY711AJAA00 Corp@,HY
USJ41838AA14 Corp@,IG
CA14911ZAS08 Corp@,IG
XS1650055624 Corp@,IG
XS1379108456 Corp@,IG
XS1743535228 Corp@,IG
XS1967614469 Corp@,IG
AU3CB0227411 Corp@,IG
USG22117AB45 Corp@,IG
XS2025575114 Corp@,IG
XS1219829949 Corp@,IG
HK0000082328 Corp@,IG
XS1952585112 Corp@,HY
US14913Q2N89 Corp@,IG
XS1371532208 Corp@,IG
HK0000082757 Corp@,IG
SG7JE8000008 Corp@,IG
XS0252367775 Corp@,IG
CA780086PX67 Corp@,IG
XS0520490672 Corp@,IG
XS0654493823 Corp@,IG
XS1461849447 Corp@,IG
US31562QAF46 Corp@,HY
XS1422299518 Corp@,IG
XS0206511486 Corp@,IG
US6174467P85 Corp@,IG
SG7R77941010 Corp@,IG
USV04008AA29 Corp@,HY
XS1620297462 Corp@,IG
XS0858461758 Corp@,IG
XS1206978543 Corp@,IG
XS1956169657 Corp@,HY
XS0682825608 Corp@,IG
US80007RAE53 Corp@,IG
US71567RAM88 Corp@,IG
XS1860797361 Corp@,IG
XS1550975079 Corp@,IG
SG7V60955658 Corp@,IG
USV3855GAA86 Corp@,HY
XS1567905754 Corp@,IG
XS1310192031 Corp@,IG
US80281LAE56 Corp@,IG
XS0856597314 Corp@,IG
XS0526235535 Corp@,IG
XS0873639701 Corp@,IG
XS1751017218 Corp@,HY
XS2034868047 Corp@,HY
XS1856031056 Corp@,IG
XS1645684660 Corp@,IG
USY39698AA65 Corp@,HY
US47215PAB22 Corp@,IG
US61746BED47 Corp@,IG
AU3CB0245108 Corp@,IG
HK0000498771 Corp@,IG
XS1912822647 Corp@,IG
USY4822WCS71 Corp@,IG
HK0000307923 Corp@,IG
AU3CB0261378 Corp@,IG
XS1645483923 Corp@,IG
XS0423325181 Corp@,IG
AU3CB0243558 Corp@,IG
XS1186986904 Corp@,NR
SGXF10246050 Corp@,IG
USN3700LAB10 Corp@,HY
HK0000335346 Corp@,IG
XS1659119629 Corp@,HY
US69353REU86 Corp@,IG
XS1555404786 Corp@,IG
US674215AE80 Corp@,HY
XS1622745203 Corp@,IG
US50050HAK23 Corp@,IG
XS1517977093 Corp@,HY
US78442FEQ72 Corp@,HY
US268648AQ50 Corp@,HY
XS1861486063 Corp@,IG
XS1790624883 Corp@,IG
XS1097953050 Corp@,IG
XS1419859142 Corp@,IG
XS1982036961 Corp@,HY
XS0549116530 Corp@,IG
XS1888197024 Corp@,IG
HK0000130945 Corp@,IG
XS1759562710 Corp@,HY
US02209SAN36 Corp@,IG
USU65478BE51 Corp@,IG
AU3CB0222255 Corp@,IG
US85207UAE55 Corp@,HY
XS1322367985 Corp@,IG
XS1934311355 Corp@,HY
USG2178XAA03 Corp@,IG
US94974BFJ44 Corp@,IG
US428236BQ57 Corp@,IG
AU3CB0245751 Corp@,IG
US912810RU43 Corp@,IG
XS2053390600 Corp@,IG
XS1450327686 Corp@,IG
USY4899GAW34 Corp@,IG
XS1074107910 Corp@,IG
XS0521395623 Corp@,IG
USU9273ACE39 Corp@,IG
CA63306AGD24 Corp@,IG
XS1316202255 Corp@,IG
XS1267602214 Corp@,IG
XS0595675439 Corp@,IG
US035287AG69 Corp@,HY
US53944YAK91 Corp@,IG
XS1588422201 Corp@,HY
US144577AH67 Corp@,HY
XS1505551322 Corp@,IG
XS1224417847 Corp@,IG
USG8669QAB61 Corp@,IG
XS0484424808 Corp@,NR
XS0558268891 Corp@,IG
US96122XAL29 Corp@,IG
XS1786085255 Corp@,IG
CA892329BD42 Corp@,IG
US74432QBP90 Corp@,IG
AU3CB0241891 Corp@,IG
USG8201JAB73 Corp@,IG
XS1867060722 Corp@,IG
USC4R803AE61 Corp@,HY
US71568QAB32 Corp@,IG
USU0942MAA72 Corp@,HY
XS1489409240 Corp@,IG
XS1648466016 Corp@,IG
USG4673GAB17 Corp@,IG
XS1747539465 Corp@,HY
HK0000394327 Corp@,IG
US89152UAB89 Corp@,IG
XS1321976950 Corp@,IG
XS1950819729 Corp@,HY
XS0518771794 Corp@,IG
US25470XAL91 Corp@,HY
XS1569850313 Corp@,IG
XS1958533553 Corp@,IG
US80283LAP85 Corp@,IG
USG22004AB41 Corp@,IG
XS1493722299 Corp@,HY
XS1485531492 Corp@,IG
XS1760780731 Corp@,HY
XS1805377246 Corp@,IG
XS1020855588 Corp@,IG
XS1397783918 Corp@,IG
USY68868AA92 Corp@,IG
CA112585AG91 Corp@,IG
US2027A1HW00 Corp@,IG
US00206RCL42 Corp@,IG
XS1650054734 Corp@,IG
XS1772325210 Corp@,HY
XS1892113413 Corp@,IG
HK0000158672 Corp@,IG
HK0000201233 Corp@,IG
XS2001754766 Corp@,IG
US852061AR17 Corp@,HY
US53947QAA58 Corp@,IG
XS1551677260 Corp@,IG
XS1375202659 Corp@,IG
HK0000241080 Corp@,IG
CA918423AR52 Corp@,IG
HK0000135993 Corp@,IG
XS1202089428 Corp@,IG
AU3CB0248862 Corp@,IG
AU3FN0038840 Corp@,IG
XS1601180836 Corp@,IG
XS1437622977 Corp@,IG
US44891CAD56 Corp@,IG
XS1310991424 Corp@,IG
XS1568303132 Corp@,IG
USN44525AA67 Corp@,HY
HK0000399094 Corp@,IG
USG5975LAE68 Corp@,HY
US747525AR43 Corp@,IG
USU76198AA52 Corp@,IG
XS1143279724 Corp@,IG
XS1572322235 Corp@,IG
CA064151UU54 Corp@,IG
XS1733221516 Corp@,IG
XS0925008533 Corp@,IG
US59217HBV87 Corp@,IG
XS1045887863 Corp@,IG
XS1627599498 Corp@,HY
XS1945125547 Corp@,IG
CAG5533WBW69 Corp@,IG
XS0835676353 Corp@,IG
US05584KAA60 Corp@,IG
AU3CB0242543 Corp@,IG
XS1839375539 Corp@,IG
US46623EKG34 Corp@,IG
HK0000300878 Corp@,IG
USY4841K5T67 Corp@,IG
XS1241052346 Corp@,IG
XS2053345992 Corp@,IG
US22536PAE16 Corp@,IG
XS2026425947 Corp@,IG
XS1596794971 Corp@,IG
USG82296AA50 Corp@,IG
XS0565475505 Corp@,IG
CA13595ZZ661 Corp@,IG
US500630CC01 Corp@,IG
US44891CBC64 Corp@,IG
AU3CB0265593 Corp@,IG
XS1506401568 Corp@,IG
XS1513700127 Corp@,HY
HK0000506656 Corp@,IG
US50066CAK53 Corp@,IG
XS1273972957 Corp@,IG
HK0000142494 Corp@,IG
XS1411381467 Corp@,IG
US09062XAC74 Corp@,IG
XS1222539022 Corp@,IG
AU3CB0223741 Corp@,IG
XS1245197998 Corp@,IG
XS2055625839 Corp@,HY
XS1308713723 Corp@,IG
XS1555809927 Corp@,IG
CA892329BJ12 Corp@,IG
XS0912154381 Corp@,IG
XS1627599142 Corp@,HY
HK0000149713 Corp@,IG
XS1984473071 Corp@,HY
XS1809230474 Corp@,HY
USU81193AL54 Corp@,HY
XS1651205152 Corp@,IG
XS0600103401 Corp@,IG
XS1422840733 Corp@,IG
XS2059678008 Corp@,IG
XS1743535491 Corp@,IG
USY57657AA90 Corp@,HY
XS1599172746 Corp@,IG
XS1347434927 Corp@,IG
XS0515468063 Corp@,IG
US166764AR12 Corp@,NR
US302154AW97 Corp@,IG
USJ09748AD66 Corp@,IG
XS1725552928 Corp@,IG
USN30707AF53 Corp@,IG
XS1624183197 Corp@,IG
USG9007CAA83 Corp@,HY
USG9600GAA07 Corp@,HY
XS1415611463 Corp@,IG
XS1485578535 Corp@,HY
CA40427HSU81 Corp@,IG
XS2075921887 Corp@,IG
XS0769334649 Corp@,IG
XS1325600994 Corp@,HY
SG3267000002 Corp@,IG
XS1612471117 Corp@,IG
US09681MAC29 Corp@,IG
HK0000303195 Corp@,IG
XS1950126109 Corp@,IG
XS1506604088 Corp@,IG
XS1521768058 Corp@,HY
XS0848709860 Corp@,IG
XS1074272953 Corp@,IG
XS1994698436 Corp@,IG
HK0000091014 Corp@,IG
XS2000500707 Corp@,IG
XS1528227827 Corp@,IG
XS1262889998 Corp@,IG
XS1897132319 Corp@,IG
USP22854AG14 Corp@,HY
US172967LC35 Corp@,IG
XS1297851955 Corp@,IG
XS1328129009 Corp@,IG
XS1970690829 Corp@,IG
US63861WAD74 Corp@,IG
XS1703791365 Corp@,IG
USG8201NAF99 Corp@,IG
USU75888AA26 Corp@,IG
XS1727496744 Corp@,IG
XS2089341809 Corp@,IG
AU3CB0243756 Corp@,IG
US82460EAL48 Corp@,IG
XS1940150623 Corp@,IG
XS1752440773 Corp@,IG
XS1666596397 Corp@,IG
HK4169039582 Corp@,IG
XS1767800961 Corp@,NR
XS1334170799 Corp@,IG
XS1390432190 Corp@,IG
HK0000261591 Corp@,IG
CA438121AS48 Corp@,IG
XS1861032628 Corp@,HY
XS1533915721 Corp@,HY
US302154CV96 Corp@,IG
AU3CB0229565 Corp@,IG
USY72596BU56 Corp@,IG
XS1789509160 Corp@,IG
US428236BF92 Corp@,IG
USG8200TAG51 Corp@,IG
XS1856800450 Corp@,IG
XS1653470721 Corp@,HY
US12634GAA13 Corp@,IG
US63254ABB35 Corp@,IG
US00101JAH95 Corp@,HY
XS1262584532 Corp@,IG
USJ45992PU24 Corp@,IG
CA438121AV76 Corp@,IG
XS1937690128 Corp@,HY
HK0000085537 Corp@,IG
XS1577688085 Corp@,NR
XS1106513762 Corp@,IG
XS2059681135 Corp@,IG
XS1103788581 Corp@,IG
CA13596ZE680 Corp@,IG
HK0000304854 Corp@,IG
USY3815NAY77 Corp@,IG
XS1711555257 Corp@,IG
XS1252173387 Corp@,IG
HK0000131679 Corp@,IG
XS1309490966 Corp@,IG
US74153XAS62 Corp@,IG
XS0846197019 Corp@,IG
US65557HAA05 Corp@,IG
SG7CG9000007 Corp@,IG
AU3CB0255636 Corp@,IG
XS1227820187 Corp@,IG
US780097AY76 Corp@,IG
XS1878119889 Corp@,IG
US45604HAC16 Corp@,IG
XS1128264758 Corp@,HY
XS1876071751 Corp@,IG
XS1883345719 Corp@,HY
XS1914920993 Corp@,IG
XS1879843438 Corp@,IG
XS1954740285 Corp@,HY
XS1033696490 Corp@,IG
US09681MAD02 Corp@,IG
US05578DAW20 Corp@,IG
US852061AS99 Corp@,HY
XS1551355149 Corp@,IG
XS1045934293 Corp@,IG
HK0000065323 Corp@,IG
US71567RAA41 Corp@,IG
US302154CW79 Corp@,IG
USG2178XAB85 Corp@,IG
US50066CAA71 Corp@,IG
HK0000462116 Corp@,NR
USC6700PAA96 Corp@,HY
USY8137FAQ10 Corp@,HY
SG6YJ3000003 Corp@,IG
XS2098650414 Corp@,IG
XS1642682410 Corp@,HY
US69370RAG20 Corp@,IG
XS1645451565 Corp@,HY
XS1508390090 Corp@,HY
US302154CQ02 Corp@,IG
XS2073593274 Corp@,HY
XS1207079499 Corp@,IG
HK0000298098 Corp@,IG
XS1387220822 Corp@,IG
CA05590HAW75 Corp@,IG
XS0527351653 Corp@,IG
XS1580431143 Corp@,HY
XS1511025907 Corp@,IG
USU2339CCH98 Corp@,IG
US80007RAB15 Corp@,IG
US06367TJX90 Corp@,IG
XS0483583737 Corp@,NR
USY4841LGS44 Corp@,IG
US718172BU28 Corp@,IG
XS0619547838 Corp@,IG
US42824CAG42 Corp@,IG
XS1901718509 Corp@,IG
US05253JAT88 Corp@,IG
XS1830000045 Corp@,IG
XS0836488485 Corp@,IG
USU9273ACV53 Corp@,IG
US63254ABA51 Corp@,IG
XS1394760182 Corp@,IG
XS0852986156 Corp@,IG
US026874BW66 Corp@,IG
XS1662749743 Corp@,HY
XS2009851176 Corp@,IG
XS1418855455 Corp@,IG
XS1489814779 Corp@,HY
US225433AK71 Corp@,IG
US09681MAG33 Corp@,IG
XS1625981045 Corp@,HY
XS1405757631 Corp@,IG
XS1594400449 Corp@,HY
XS0507147725 Corp@,IG
XS1753594198 Corp@,HY
XS1684818377 Corp@,IG
USJ0423YBW33 Corp@,IG
US38141GVP61 Corp@,IG
XS1508917017 Corp@,IG
XS1227814883 Corp@,IG
XS2020061326 Corp@,HY
XS1418627821 Corp@,IG
US345397VU41 Corp@,IG
USV96177AA46 Corp@,IG
XS1308339420 Corp@,IG
AU3CB0266062 Corp@,IG
US86562MAE03 Corp@,IG
XS1811023065 Corp@,HY
HK0000235769 Corp@,NR
XS2099267689 Corp@,IG
USG8185TAA72 Corp@,IG
USP1507SAC19 Corp@,IG
USY20721BE87 Corp@,IG
XS1245675563 Corp@,IG
XS2027337786 Corp@,HY
XS1976473618 Corp@,HY
XS1952116983 Corp@,HY
CA918423AN49 Corp@,IG
XS1385999492 Corp@,IG
XS0866438475 Corp@,IG
XS1165130219 Corp@,IG
XS1870205819 Corp@,HY
US40963MAH51 Corp@,IG
XS1788511951 Corp@,IG
XS1691865619 Corp@,IG
XS2090949160 Corp@,HY
XS1545743442 Corp@,HY
XS1199968998 Corp@,NR
USG85381AB09 Corp@,HY
USY20721BC22 Corp@,IG
US900123CA66 Corp@,HY
USY3R559AK81 Corp@,IG
USY29011CK05 Corp@,IG
HK0000114840 Corp@,IG
US056752AF54 Corp@,IG
US44891CAR43 Corp@,IG
US056752AB41 Corp@,IG
USG0686BAA73 Corp@,IG
AU3CB0238228 Corp@,IG
XS1241110300 Corp@,IG
XS1237961369 Corp@,IG
USY3860XAC75 Corp@,IG
XS1969792800 Corp@,HY
US37045XBD75 Corp@,IG
XS1633896813 Corp@,IG
SG7NF6000009 Corp@,IG
XS1973241125 Corp@,HY
AU3CB0265627 Corp@,IG
AU3CB0213098 Corp@,IG
USG65309AA76 Corp@,HY
USP09646AC75 Corp@,IG
USY3815NBA82 Corp@,IG
XS1496392330 Corp@,IG
XS2011969065 Corp@,IG
USY59505AA82 Corp@,HY
USQ8809VAD12 Corp@,IG
XS1634368507 Corp@,IG
USU65478BJ49 Corp@,IG
US44891CAW38 Corp@,IG
US50065KAE29 Corp@,IG
XS0926834432 Corp@,IG
USU65478BN50 Corp@,IG
XS1733878810 Corp@,IG
XS1747665922 Corp@,HY
USY9384RAA87 Corp@,HY
USG8201NAE25 Corp@,IG
XS1535978800 Corp@,HY
XS0747069671 Corp@,IG
XS1978319108 Corp@,IG
US402635AE62 Corp@,HY
HK0000091865 Corp@,IG
USJ54675AZ63 Corp@,IG
XS1774687542 Corp@,IG
USY47606AF80 Corp@,IG
XS1023280271 Corp@,HY
AU3CB0258614 Corp@,IG
XS1964779349 Corp@,IG
AU3CB0249365 Corp@,IG
US05578BAA44 Corp@,IG
US88323AAE29 Corp@,IG
XS1887493309 Corp@,IG
XS1710541506 Corp@,IG
XS1974522853 Corp@,IG
XS1572743927 Corp@,IG
US064159GW01 Corp@,IG
US00182FBA30 Corp@,IG
USG91703AA90 Corp@,IG
US75281ABA60 Corp@,HY
SG73E8000007 Corp@,IG
AU3FN0040291 Corp@,IG
USP3772NHK11 Corp@,IG
USJ4599LAJ10 Corp@,IG
US65540KAA34 Corp@,IG
US37045XCL82 Corp@,IG
US865622BV55 Corp@,IG
XS1391407969 Corp@,IG
AU3FN0046835 Corp@,IG
XS1733860362 Corp@,IG
XS1575994535 Corp@,NR
HK0000463023 Corp@,IG
XS1844104437 Corp@,IG
XS1040431519 Corp@,IG
XS1313048974 Corp@,IG
AU3CB0237725 Corp@,IG
USP14486AD93 Corp@,HY
USY7138AAA89 Corp@,IG
USU62472AF96 Corp@,IG
US302154BA68 Corp@,IG
USU16708AL09 Corp@,IG
DE000CB83CF0 Corp@,IG
XS1523140942 Corp@,IG
US6325C1BJ78 Corp@,IG
XS1933097633 Corp@,IG
XS1428988536 Corp@,IG
US165167CL94 Corp@,HY
AU3CB0250512 Corp@,IG
XS1576037284 Corp@,HY
USQ3919KAJ09 Corp@,IG
US455780CK06 Corp@,IG
USU2339CDG07 Corp@,IG
XS1819477990 Corp@,IG
XS1637274124 Corp@,HY
XS0648477593 Corp@,IG
US09659X2A94 Corp@,IG
US78012KJA60 Corp@,IG
USY20721BM04 Corp@,IG
XS1856094724 Corp@,HY
XS2001732010 Corp@,IG
XS1851274511 Corp@,IG
XS1716831570 Corp@,IG
XS1401202517 Corp@,IG
HK0000123213 Corp@,IG
XS0496405795 Corp@,IG
HK0000071412 Corp@,IG
XS1650033571 Corp@,IG
XS2057887353 Corp@,IG
XS1733220898 Corp@,IG
XS1756403124 Corp@,IG
XS1750975200 Corp@,HY
HK0000111929 Corp@,IG
XS1637076164 Corp@,HY
US61747YDU64 Corp@,IG
XS0775625246 Corp@,IG
XS1932866079 Corp@,IG
XS2030348903 Corp@,IG
XS1819960136 Corp@,HY
AU3CB0253771 Corp@,IG
HK0000242559 Corp@,IG
XS1893648904 Corp@,HY
XS1996313737 Corp@,HY
XS1593369561 Corp@,IG
XS2002235518 Corp@,HY
XS1934321404 Corp@,IG
XS2031469732 Corp@,HY
XS1809258210 Corp@,HY
XS1596795275 Corp@,IG
XS1494426932 Corp@,IG
US56501RAC07 Corp@,IG
XS1602312891 Corp@,IG
XS1405781698 Corp@,IG
XS0563742138 Corp@,IG
US60687YAE95 Corp@,IG
XS1785829927 Corp@,IG
XS1237348070 Corp@,IG
US05253JAQ40 Corp@,IG
USY0606WBU37 Corp@,IG
US35671DAZ87 Corp@,HY
XS1879569355 Corp@,IG
XS1185978696 Corp@,NR
XS0923450414 Corp@,IG
AU3CB0223675 Corp@,NR
USG2523RAA52 Corp@,IG
XS1449950663 Corp@,IG
XS1380286663 Corp@,IG
XS1108784510 Corp@,IG
AU3CB0262517 Corp@,IG
XS2052949968 Corp@,HY
XS1435309908 Corp@,IG
XS1382636493 Corp@,IG
XS2100005771 Corp@,HY
XS2019083612 Corp@,HY
XS0508012092 Corp@,IG
XS1903671698 Corp@,HY
XS1683356874 Corp@,IG
USG21184AA79 Corp@,IG
USU2339CCJ54 Corp@,IG
CA14911ZAU53 Corp@,IG
XS1410341389 Corp@,IG
XS1084958989 Corp@,IG
HK0000149721 Corp@,IG
US53944VAP40 Corp@,IG
US80281LAC90 Corp@,IG
US278642AS20 Corp@,IG
XS1325770722 Corp@,IG
USG21895AB60 Corp@,IG
XS1431266847 Corp@,IG
XS1294535833 Corp@,IG
XS1039273666 Corp@,IG
XS1820761556 Corp@,HY
XS2008566197 Corp@,IG
AU3CB0242535 Corp@,IG
USG8850LAB65 Corp@,IG
XS2013002824 Corp@,IG
HK0000226511 Corp@,IG
US59217HAR84 Corp@,IG
AU3CB0227940 Corp@,NR
USG2120QAB26 Corp@,IG
XS2037190514 Corp@,HY
US14913Q2A68 Corp@,IG
XS1615078141 Corp@,HY
XS1892105823 Corp@,IG
XS1900869683 Corp@,HY
US61746BEA08 Corp@,IG
US891160MJ94 Corp@,IG
XS1272206209 Corp@,HY
US91127LAA89 Corp@,IG
XS1496345684 Corp@,IG
XS1121907676 Corp@,HY
USL6401PAF01 Corp@,HY
USG23530AA92 Corp@,IG
AU3CB0220226 Corp@,IG
XS2001168447 Corp@,IG
HK0000072832 Corp@,IG
USU91505AJ35 Corp@,HY
XS1713666318 Corp@,IG
USY3R559AF96 Corp@,IG
CA06415EXV24 Corp@,IG
XS1596795192 Corp@,IG
XS1700429050 Corp@,IG
CA892329BG72 Corp@,IG
XS0463588052 Corp@,IG
USQ3919KAL54 Corp@,IG
SG6WB2000005 Corp@,IG
XS0796188299 Corp@,IG
US63254AAE82 Corp@,IG
USG8450LAF16 Corp@,IG
XS1976760782 Corp@,HY
