Date,Open,High,Low,Close,Adj Close,Volume
2020-01-01,0.128427,0.128752,0.128325,0.128427,0.128427,0
2020-01-02,0.128333,0.128405,0.128315,0.128329,0.128329,0
2020-01-03,0.128393,0.128603,0.128376,0.128398,0.128398,0
2020-01-06,0.128511,0.128738,0.128508,0.128510,0.128510,0
2020-01-07,0.128673,0.128697,0.128586,0.128694,0.128694,0
2020-01-08,0.128582,0.128643,0.128546,0.128579,0.128579,0
2020-01-09,0.128607,0.128778,0.128573,0.128598,0.128598,0
2020-01-10,0.128761,0.128820,0.128739,0.128758,0.128758,0
2020-01-13,0.128757,0.128773,0.128621,0.128758,0.128758,0
2020-01-14,0.128678,0.128679,0.128564,0.128675,0.128675,0
2020-01-15,0.128584,0.128703,0.128548,0.128591,0.128591,0
2020-01-16,0.128661,0.128732,0.128626,0.128675,0.128675,0
2020-01-17,0.128664,0.128745,0.128646,0.128674,0.128674,0
2020-01-20,0.128728,0.128768,0.128707,0.128736,0.128736,0
2020-01-21,0.128713,0.128718,0.128626,0.128713,0.128713,0
2020-01-22,0.128697,0.128756,0.128639,0.128697,0.128697,0
2020-01-23,0.128682,0.128689,0.128621,0.128685,0.128685,0
2020-01-24,0.128662,0.128685,0.128632,0.128662,0.128662,0
2020-01-27,0.128627,0.128650,0.128576,0.128627,0.128627,0
2020-01-28,0.128584,0.128612,0.128548,0.128583,0.128583,0
2020-01-29,0.128604,0.128674,0.128587,0.128610,0.128610,0
2020-01-30,0.128650,0.128766,0.128639,0.128651,0.128651,0
2020-01-31,0.128745,0.128805,0.128694,0.128742,0.128742,0
2020-02-03,0.128769,0.128780,0.128716,0.128772,0.128772,0
2020-02-04,0.128765,0.128782,0.128707,0.128766,0.128766,0
2020-02-05,0.128744,0.128834,0.128743,0.128760,0.128760,0
2020-02-06,0.128808,0.128836,0.128792,0.128810,0.128810,0
2020-02-07,0.128810,0.128868,0.128760,0.128808,0.128808,0
2020-02-10,0.128770,0.128792,0.128752,0.128770,0.128770,0
2020-02-11,0.128768,0.128824,0.128763,0.128763,0.128763,0
2020-02-12,0.128780,0.128796,0.128685,0.128780,0.128780,0
2020-02-13,0.128722,0.128778,0.128694,0.128718,0.128718,0
2020-02-14,0.128757,0.128770,0.128725,0.128756,0.128756,0
2020-02-17,0.128750,0.128771,0.128728,0.128746,0.128746,0
2020-02-18,0.128737,0.128760,0.128697,0.128737,0.128737,0
2020-02-19,0.128723,0.128725,0.128668,0.128723,0.128723,0
2020-02-20,0.128655,0.128665,0.128467,0.128650,0.128650,0
2020-02-21,0.128523,0.128524,0.128317,0.128523,0.128523,0
2020-02-24,0.128335,0.128354,0.128249,0.128338,0.128338,0
2020-02-25,0.128328,0.128418,0.128319,0.128334,0.128334,0
2020-02-26,0.128375,0.128393,0.128290,0.128375,0.128375,0
2020-02-27,0.128324,0.128345,0.128238,0.128328,0.128328,0
2020-02-28,0.128298,0.128343,0.128227,0.128294,0.128294,0
2020-03-02,0.128322,0.128596,0.128289,0.128319,0.128319,0
2020-03-03,0.128513,0.128769,0.128467,0.128520,0.128520,0
2020-03-04,0.128685,0.128796,0.128655,0.128698,0.128698,0
2020-03-05,0.128671,0.128708,0.128643,0.128671,0.128671,0
2020-03-06,0.128687,0.128737,0.128612,0.128688,0.128688,0
2020-03-09,0.128710,0.128780,0.128642,0.128712,0.128712,0
2020-03-10,0.128684,0.128729,0.128649,0.128684,0.128684,0
2020-03-11,0.128733,0.128765,0.128703,0.128730,0.128730,0
2020-03-12,0.128730,0.128737,0.128434,0.128725,0.128725,0
2020-03-13,0.128594,0.128788,0.128518,0.128591,0.128591,0
2020-03-16,0.128814,0.128873,0.128699,0.128812,0.128812,0