Date,Open,High,Low,Close,Adj Close,Volume
2020-01-01,0.749344,0.749625,0.744014,0.749344,0.749344,0
2020-01-02,0.743461,0.743937,0.741708,0.743389,0.743389,0
2020-01-03,0.742225,0.742721,0.740313,0.742446,0.742446,0
2020-01-06,0.740883,0.741675,0.740143,0.740861,0.740861,0
2020-01-07,0.741207,0.742170,0.739962,0.741196,0.741196,0
2020-01-08,0.740017,0.741235,0.739399,0.740023,0.740023,0
2020-01-09,0.740796,0.741455,0.739475,0.740796,0.740796,0
2020-01-10,0.740160,0.741950,0.739957,0.740165,0.740165,0
2020-01-13,0.741636,0.743229,0.741554,0.741675,0.741675,0
2020-01-14,0.742556,0.743384,0.741702,0.742721,0.742721,0
2020-01-15,0.741840,0.743218,0.741741,0.741933,0.741933,0
2020-01-16,0.742964,0.743716,0.742330,0.743163,0.743163,0
2020-01-17,0.742622,0.743550,0.741961,0.742611,0.742611,0
2020-01-20,0.742258,0.743108,0.741757,0.742187,0.742187,0
2020-01-21,0.742832,0.742887,0.740582,0.742556,0.742556,0
2020-01-22,0.740807,0.741895,0.740203,0.740801,0.740801,0
2020-01-23,0.741466,0.741950,0.739306,0.741730,0.741730,0
2020-01-24,0.740171,0.741290,0.739678,0.740302,0.740302,0
2020-01-27,0.738492,0.739317,0.736616,0.738356,0.738356,0
2020-01-28,0.736811,0.737300,0.735462,0.736632,0.736632,0
2020-01-29,0.736648,0.737278,0.734263,0.736865,0.736865,0
2020-01-30,0.734900,0.735024,0.733251,0.735240,0.735240,0
2020-01-31,0.733950,0.735078,0.731502,0.734026,0.734026,0
2020-02-03,0.733041,0.733041,0.730466,0.733052,0.733052,0
2020-02-04,0.729788,0.730247,0.728454,0.730018,0.730018,0
2020-02-05,0.729155,0.729629,0.723437,0.729395,0.729395,0
2020-02-06,0.724480,0.724533,0.721163,0.724480,0.724480,0
2020-02-07,0.721646,0.722178,0.718633,0.721454,0.721454,0
2020-02-10,0.718571,0.720825,0.718293,0.718752,0.718752,0
2020-02-11,0.719968,0.721813,0.719668,0.720020,0.720020,0
2020-02-12,0.721605,0.722335,0.720747,0.721480,0.721480,0
2020-02-13,0.720248,0.721188,0.719714,0.720404,0.720404,0
2020-02-14,0.719311,0.720305,0.718277,0.719424,0.719424,0
2020-02-17,0.719150,0.720617,0.718566,0.719254,0.719254,0
2020-02-18,0.719751,0.719839,0.717751,0.720098,0.720098,0
2020-02-19,0.718701,0.719476,0.717000,0.718701,0.718701,0
2020-02-20,0.717180,0.717669,0.712596,0.717221,0.717221,0
2020-02-21,0.713547,0.716178,0.713002,0.713542,0.713542,0
2020-02-24,0.713318,0.715359,0.712200,0.713379,0.713379,0
2020-02-25,0.714929,0.716538,0.714393,0.714934,0.714934,0
2020-02-26,0.715093,0.716127,0.714015,0.715113,0.715113,0
2020-02-27,0.715548,0.717566,0.715405,0.715620,0.715620,0
2020-02-28,0.717021,0.717618,0.714832,0.716985,0.716985,0
2020-03-02,0.718195,0.720773,0.717988,0.718215,0.718215,0
2020-03-03,0.720233,0.722475,0.717185,0.720056,0.720056,0
2020-03-04,0.720913,0.723014,0.719600,0.720799,0.720799,0
2020-03-05,0.721912,0.722648,0.720684,0.722872,0.722872,0
2020-03-06,0.722825,0.726322,0.721423,0.722961,0.722961,0
2020-03-09,0.726464,0.726850,0.721449,0.726443,0.726443,0
2020-03-10,0.721704,0.722961,0.718515,0.721568,0.721568,0
2020-03-11,0.718520,0.720513,0.718221,0.718479,0.718479,0
2020-03-12,0.716363,0.716815,0.709129,0.716296,0.716296,0
2020-03-13,0.709386,0.711339,0.705552,0.709215,0.709215,0
2020-03-16,0.708466,0.708466,0.702790,0.707894,0.707894,0